{
    "_embedded": {
        "efoTraits": [
            {
                "trait": "galectin-3 measurement",
                "uri": "http://www.ebi.ac.uk/efo/EFO_0008137",
                "shortForm": "EFO_0008137",
                "_links": {
                    "self": {
                        "href": "https://www.ebi.ac.uk/gwas/rest/api/efoTraits/EFO_0008137"
                    },
                    "efoTrait": {
                        "href": "https://www.ebi.ac.uk/gwas/rest/api/efoTraits/EFO_0008137"
                    },
                    "associationsByTraitSummary": {
                        "href": "https://www.ebi.ac.uk/gwas/rest/api/efoTraits/EFO_0008137/associations?projection=associationByEfoTrait"
                    },
                    "studies": {
                        "href": "https://www.ebi.ac.uk/gwas/rest/api/efoTraits/EFO_0008137/studies"
                    },
                    "associations": {
                        "href": "https://www.ebi.ac.uk/gwas/rest/api/efoTraits/EFO_0008137/associations"
                    }
                }
            },
            {
                "trait": "GDNF family receptor alpha-2 measurement",
                "uri": "http://www.ebi.ac.uk/efo/EFO_0008138",
                "shortForm": "EFO_0008138",
                "_links": {
                    "self": {
                        "href": "https://www.ebi.ac.uk/gwas/rest/api/efoTraits/EFO_0008138"
                    },
                    "efoTrait": {
                        "href": "https://www.ebi.ac.uk/gwas/rest/api/efoTraits/EFO_0008138"
                    },
                    "associationsByTraitSummary": {
                        "href": "https://www.ebi.ac.uk/gwas/rest/api/efoTraits/EFO_0008138/associations?projection=associationByEfoTrait"
                    },
                    "studies": {
                        "href": "https://www.ebi.ac.uk/gwas/rest/api/efoTraits/EFO_0008138/studies"
                    },
                    "associations": {
                        "href": "https://www.ebi.ac.uk/gwas/rest/api/efoTraits/EFO_0008138/associations"
                    }
                }
            },
            {
                "trait": "glypican-5 measurement",
                "uri": "http://www.ebi.ac.uk/efo/EFO_0008139",
                "shortForm": "EFO_0008139",
                "_links": {
                    "self": {
                        "href": "https://www.ebi.ac.uk/gwas/rest/api/efoTraits/EFO_0008139"
                    },
                    "efoTrait": {
                        "href": "https://www.ebi.ac.uk/gwas/rest/api/efoTraits/EFO_0008139"
                    },
                    "associationsByTraitSummary": {
                        "href": "https://www.ebi.ac.uk/gwas/rest/api/efoTraits/EFO_0008139/associations?projection=associationByEfoTrait"
                    },
                    "studies": {
                        "href": "https://www.ebi.ac.uk/gwas/rest/api/efoTraits/EFO_0008139/studies"
                    },
                    "associations": {
                        "href": "https://www.ebi.ac.uk/gwas/rest/api/efoTraits/EFO_0008139/associations"
                    }
                }
            },
            {
                "trait": "gp41 C34 peptide, HIV measurement",
                "uri": "http://www.ebi.ac.uk/efo/EFO_0008140",
                "shortForm": "EFO_0008140",
                "_links": {
                    "self": {
                        "href": "https://www.ebi.ac.uk/gwas/rest/api/efoTraits/EFO_0008140"
                    },
                    "efoTrait": {
                        "href": "https://www.ebi.ac.uk/gwas/rest/api/efoTraits/EFO_0008140"
                    },
                    "associationsByTraitSummary": {
                        "href": "https://www.ebi.ac.uk/gwas/rest/api/efoTraits/EFO_0008140/associations?projection=associationByEfoTrait"
                    },
                    "studies": {
                        "href": "https://www.ebi.ac.uk/gwas/rest/api/efoTraits/EFO_0008140/studies"
                    },
                    "associations": {
                        "href": "https://www.ebi.ac.uk/gwas/rest/api/efoTraits/EFO_0008140/associations"
                    }
                }
            },
            {
                "trait": "granulins measurement",
                "uri": "http://www.ebi.ac.uk/efo/EFO_0008141",
                "shortForm": "EFO_0008141",
                "_links": {
                    "self": {
                        "href": "https://www.ebi.ac.uk/gwas/rest/api/efoTraits/EFO_0008141"
                    },
                    "efoTrait": {
                        "href": "https://www.ebi.ac.uk/gwas/rest/api/efoTraits/EFO_0008141"
                    },
                    "associationsByTraitSummary": {
                        "href": "https://www.ebi.ac.uk/gwas/rest/api/efoTraits/EFO_0008141/associations?projection=associationByEfoTrait"
                    },
                    "studies": {
                        "href": "https://www.ebi.ac.uk/gwas/rest/api/efoTraits/EFO_0008141/studies"
                    },
                    "associations": {
                        "href": "https://www.ebi.ac.uk/gwas/rest/api/efoTraits/EFO_0008141/associations"
                    }
                }
            },
            {
                "trait": "granulocyte colony-stimulating factor measurement",
                "uri": "http://www.ebi.ac.uk/efo/EFO_0008142",
                "shortForm": "EFO_0008142",
                "_links": {
                    "self": {
                        "href": "https://www.ebi.ac.uk/gwas/rest/api/efoTraits/EFO_0008142"
                    },
                    "efoTrait": {
                        "href": "https://www.ebi.ac.uk/gwas/rest/api/efoTraits/EFO_0008142"
                    },
                    "associationsByTraitSummary": {
                        "href": "https://www.ebi.ac.uk/gwas/rest/api/efoTraits/EFO_0008142/associations?projection=associationByEfoTrait"
                    },
                    "studies": {
                        "href": "https://www.ebi.ac.uk/gwas/rest/api/efoTraits/EFO_0008142/studies"
                    },
                    "associations": {
                        "href": "https://www.ebi.ac.uk/gwas/rest/api/efoTraits/EFO_0008142/associations"
                    }
                }
            },
            {
                "trait": "granulysin measurement",
                "uri": "http://www.ebi.ac.uk/efo/EFO_0008144",
                "shortForm": "EFO_0008144",
                "_links": {
                    "self": {
                        "href": "https://www.ebi.ac.uk/gwas/rest/api/efoTraits/EFO_0008144"
                    },
                    "efoTrait": {
                        "href": "https://www.ebi.ac.uk/gwas/rest/api/efoTraits/EFO_0008144"
                    },
                    "associationsByTraitSummary": {
                        "href": "https://www.ebi.ac.uk/gwas/rest/api/efoTraits/EFO_0008144/associations?projection=associationByEfoTrait"
                    },
                    "studies": {
                        "href": "https://www.ebi.ac.uk/gwas/rest/api/efoTraits/EFO_0008144/studies"
                    },
                    "associations": {
                        "href": "https://www.ebi.ac.uk/gwas/rest/api/efoTraits/EFO_0008144/associations"
                    }
                }
            },
            {
                "trait": "granzyme A measurement",
                "uri": "http://www.ebi.ac.uk/efo/EFO_0008145",
                "shortForm": "EFO_0008145",
                "_links": {
                    "self": {
                        "href": "https://www.ebi.ac.uk/gwas/rest/api/efoTraits/EFO_0008145"
                    },
                    "efoTrait": {
                        "href": "https://www.ebi.ac.uk/gwas/rest/api/efoTraits/EFO_0008145"
                    },
                    "associationsByTraitSummary": {
                        "href": "https://www.ebi.ac.uk/gwas/rest/api/efoTraits/EFO_0008145/associations?projection=associationByEfoTrait"
                    },
                    "studies": {
                        "href": "https://www.ebi.ac.uk/gwas/rest/api/efoTraits/EFO_0008145/studies"
                    },
                    "associations": {
                        "href": "https://www.ebi.ac.uk/gwas/rest/api/efoTraits/EFO_0008145/associations"
                    }
                }
            },
            {
                "trait": "growth-regulated alpha protein measurement",
                "uri": "http://www.ebi.ac.uk/efo/EFO_0008146",
                "shortForm": "EFO_0008146",
                "_links": {
                    "self": {
                        "href": "https://www.ebi.ac.uk/gwas/rest/api/efoTraits/EFO_0008146"
                    },
                    "efoTrait": {
                        "href": "https://www.ebi.ac.uk/gwas/rest/api/efoTraits/EFO_0008146"
                    },
                    "associationsByTraitSummary": {
                        "href": "https://www.ebi.ac.uk/gwas/rest/api/efoTraits/EFO_0008146/associations?projection=associationByEfoTrait"
                    },
                    "studies": {
                        "href": "https://www.ebi.ac.uk/gwas/rest/api/efoTraits/EFO_0008146/studies"
                    },
                    "associations": {
                        "href": "https://www.ebi.ac.uk/gwas/rest/api/efoTraits/EFO_0008146/associations"
                    }
                }
            },
            {
                "trait": "gwas_trait",
                "uri": "http://www.ebi.ac.uk/efo/EFO_0008147",
                "shortForm": "EFO_0008147",
                "_links": {
                    "self": {
                        "href": "https://www.ebi.ac.uk/gwas/rest/api/efoTraits/EFO_0008147"
                    },
                    "efoTrait": {
                        "href": "https://www.ebi.ac.uk/gwas/rest/api/efoTraits/EFO_0008147"
                    },
                    "associationsByTraitSummary": {
                        "href": "https://www.ebi.ac.uk/gwas/rest/api/efoTraits/EFO_0008147/associations?projection=associationByEfoTrait"
                    },
                    "studies": {
                        "href": "https://www.ebi.ac.uk/gwas/rest/api/efoTraits/EFO_0008147/studies"
                    },
                    "associations": {
                        "href": "https://www.ebi.ac.uk/gwas/rest/api/efoTraits/EFO_0008147/associations"
                    }
                }
            },
            {
                "trait": "hemojuvelin measurement",
                "uri": "http://www.ebi.ac.uk/efo/EFO_0008148",
                "shortForm": "EFO_0008148",
                "_links": {
                    "self": {
                        "href": "https://www.ebi.ac.uk/gwas/rest/api/efoTraits/EFO_0008148"
                    },
                    "efoTrait": {
                        "href": "https://www.ebi.ac.uk/gwas/rest/api/efoTraits/EFO_0008148"
                    },
                    "associationsByTraitSummary": {
                        "href": "https://www.ebi.ac.uk/gwas/rest/api/efoTraits/EFO_0008148/associations?projection=associationByEfoTrait"
                    },
                    "studies": {
                        "href": "https://www.ebi.ac.uk/gwas/rest/api/efoTraits/EFO_0008148/studies"
                    },
                    "associations": {
                        "href": "https://www.ebi.ac.uk/gwas/rest/api/efoTraits/EFO_0008148/associations"
                    }
                }
            },
            {
                "trait": "hemopexin measurement",
                "uri": "http://www.ebi.ac.uk/efo/EFO_0008149",
                "shortForm": "EFO_0008149",
                "_links": {
                    "self": {
                        "href": "https://www.ebi.ac.uk/gwas/rest/api/efoTraits/EFO_0008149"
                    },
                    "efoTrait": {
                        "href": "https://www.ebi.ac.uk/gwas/rest/api/efoTraits/EFO_0008149"
                    },
                    "associationsByTraitSummary": {
                        "href": "https://www.ebi.ac.uk/gwas/rest/api/efoTraits/EFO_0008149/associations?projection=associationByEfoTrait"
                    },
                    "studies": {
                        "href": "https://www.ebi.ac.uk/gwas/rest/api/efoTraits/EFO_0008149/studies"
                    },
                    "associations": {
                        "href": "https://www.ebi.ac.uk/gwas/rest/api/efoTraits/EFO_0008149/associations"
                    }
                }
            },
            {
                "trait": "heparin cofactor 2 measurement",
                "uri": "http://www.ebi.ac.uk/efo/EFO_0008150",
                "shortForm": "EFO_0008150",
                "_links": {
                    "self": {
                        "href": "https://www.ebi.ac.uk/gwas/rest/api/efoTraits/EFO_0008150"
                    },
                    "efoTrait": {
                        "href": "https://www.ebi.ac.uk/gwas/rest/api/efoTraits/EFO_0008150"
                    },
                    "associationsByTraitSummary": {
                        "href": "https://www.ebi.ac.uk/gwas/rest/api/efoTraits/EFO_0008150/associations?projection=associationByEfoTrait"
                    },
                    "studies": {
                        "href": "https://www.ebi.ac.uk/gwas/rest/api/efoTraits/EFO_0008150/studies"
                    },
                    "associations": {
                        "href": "https://www.ebi.ac.uk/gwas/rest/api/efoTraits/EFO_0008150/associations"
                    }
                }
            },
            {
                "trait": "hepatitis A virus cellular receptor 2 measurement",
                "uri": "http://www.ebi.ac.uk/efo/EFO_0008151",
                "shortForm": "EFO_0008151",
                "_links": {
                    "self": {
                        "href": "https://www.ebi.ac.uk/gwas/rest/api/efoTraits/EFO_0008151"
                    },
                    "efoTrait": {
                        "href": "https://www.ebi.ac.uk/gwas/rest/api/efoTraits/EFO_0008151"
                    },
                    "associationsByTraitSummary": {
                        "href": "https://www.ebi.ac.uk/gwas/rest/api/efoTraits/EFO_0008151/associations?projection=associationByEfoTrait"
                    },
                    "studies": {
                        "href": "https://www.ebi.ac.uk/gwas/rest/api/efoTraits/EFO_0008151/studies"
                    },
                    "associations": {
                        "href": "https://www.ebi.ac.uk/gwas/rest/api/efoTraits/EFO_0008151/associations"
                    }
                }
            },
            {
                "trait": "hepatocyte growth factor activator measurement",
                "uri": "http://www.ebi.ac.uk/efo/EFO_0008152",
                "shortForm": "EFO_0008152",
                "_links": {
                    "self": {
                        "href": "https://www.ebi.ac.uk/gwas/rest/api/efoTraits/EFO_0008152"
                    },
                    "efoTrait": {
                        "href": "https://www.ebi.ac.uk/gwas/rest/api/efoTraits/EFO_0008152"
                    },
                    "associationsByTraitSummary": {
                        "href": "https://www.ebi.ac.uk/gwas/rest/api/efoTraits/EFO_0008152/associations?projection=associationByEfoTrait"
                    },
                    "studies": {
                        "href": "https://www.ebi.ac.uk/gwas/rest/api/efoTraits/EFO_0008152/studies"
                    },
                    "associations": {
                        "href": "https://www.ebi.ac.uk/gwas/rest/api/efoTraits/EFO_0008152/associations"
                    }
                }
            },
            {
                "trait": "hepatocyte growth factor receptor measurement",
                "uri": "http://www.ebi.ac.uk/efo/EFO_0008153",
                "shortForm": "EFO_0008153",
                "_links": {
                    "self": {
                        "href": "https://www.ebi.ac.uk/gwas/rest/api/efoTraits/EFO_0008153"
                    },
                    "efoTrait": {
                        "href": "https://www.ebi.ac.uk/gwas/rest/api/efoTraits/EFO_0008153"
                    },
                    "associationsByTraitSummary": {
                        "href": "https://www.ebi.ac.uk/gwas/rest/api/efoTraits/EFO_0008153/associations?projection=associationByEfoTrait"
                    },
                    "studies": {
                        "href": "https://www.ebi.ac.uk/gwas/rest/api/efoTraits/EFO_0008153/studies"
                    },
                    "associations": {
                        "href": "https://www.ebi.ac.uk/gwas/rest/api/efoTraits/EFO_0008153/associations"
                    }
                }
            },
            {
                "trait": "hepatocyte growth factor-like protein measurement",
                "uri": "http://www.ebi.ac.uk/efo/EFO_0008154",
                "shortForm": "EFO_0008154",
                "_links": {
                    "self": {
                        "href": "https://www.ebi.ac.uk/gwas/rest/api/efoTraits/EFO_0008154"
                    },
                    "efoTrait": {
                        "href": "https://www.ebi.ac.uk/gwas/rest/api/efoTraits/EFO_0008154"
                    },
                    "associationsByTraitSummary": {
                        "href": "https://www.ebi.ac.uk/gwas/rest/api/efoTraits/EFO_0008154/associations?projection=associationByEfoTrait"
                    },
                    "studies": {
                        "href": "https://www.ebi.ac.uk/gwas/rest/api/efoTraits/EFO_0008154/studies"
                    },
                    "associations": {
                        "href": "https://www.ebi.ac.uk/gwas/rest/api/efoTraits/EFO_0008154/associations"
                    }
                }
            },
            {
                "trait": "histidine-rich glycoprotein measurement",
                "uri": "http://www.ebi.ac.uk/efo/EFO_0008155",
                "shortForm": "EFO_0008155",
                "_links": {
                    "self": {
                        "href": "https://www.ebi.ac.uk/gwas/rest/api/efoTraits/EFO_0008155"
                    },
                    "efoTrait": {
                        "href": "https://www.ebi.ac.uk/gwas/rest/api/efoTraits/EFO_0008155"
                    },
                    "associationsByTraitSummary": {
                        "href": "https://www.ebi.ac.uk/gwas/rest/api/efoTraits/EFO_0008155/associations?projection=associationByEfoTrait"
                    },
                    "studies": {
                        "href": "https://www.ebi.ac.uk/gwas/rest/api/efoTraits/EFO_0008155/studies"
                    },
                    "associations": {
                        "href": "https://www.ebi.ac.uk/gwas/rest/api/efoTraits/EFO_0008155/associations"
                    }
                }
            },
            {
                "trait": "human Chorionic Gonadotropin measurement",
                "uri": "http://www.ebi.ac.uk/efo/EFO_0008156",
                "shortForm": "EFO_0008156",
                "_links": {
                    "self": {
                        "href": "https://www.ebi.ac.uk/gwas/rest/api/efoTraits/EFO_0008156"
                    },
                    "efoTrait": {
                        "href": "https://www.ebi.ac.uk/gwas/rest/api/efoTraits/EFO_0008156"
                    },
                    "associationsByTraitSummary": {
                        "href": "https://www.ebi.ac.uk/gwas/rest/api/efoTraits/EFO_0008156/associations?projection=associationByEfoTrait"
                    },
                    "studies": {
                        "href": "https://www.ebi.ac.uk/gwas/rest/api/efoTraits/EFO_0008156/studies"
                    },
                    "associations": {
                        "href": "https://www.ebi.ac.uk/gwas/rest/api/efoTraits/EFO_0008156/associations"
                    }
                }
            },
            {
                "trait": "inorganic pyrophosphatase measurement",
                "uri": "http://www.ebi.ac.uk/efo/EFO_0008157",
                "shortForm": "EFO_0008157",
                "_links": {
                    "self": {
                        "href": "https://www.ebi.ac.uk/gwas/rest/api/efoTraits/EFO_0008157"
                    },
                    "efoTrait": {
                        "href": "https://www.ebi.ac.uk/gwas/rest/api/efoTraits/EFO_0008157"
                    },
                    "associationsByTraitSummary": {
                        "href": "https://www.ebi.ac.uk/gwas/rest/api/efoTraits/EFO_0008157/associations?projection=associationByEfoTrait"
                    },
                    "studies": {
                        "href": "https://www.ebi.ac.uk/gwas/rest/api/efoTraits/EFO_0008157/studies"
                    },
                    "associations": {
                        "href": "https://www.ebi.ac.uk/gwas/rest/api/efoTraits/EFO_0008157/associations"
                    }
                }
            }
        ]
    },
    "_links": {
        "first": {
            "href": "https://www.ebi.ac.uk/gwas/rest/api/efoTraits?page=0&size=20"
        },
        "prev": {
            "href": "https://www.ebi.ac.uk/gwas/rest/api/efoTraits?page=89&size=20"
        },
        "self": {
            "href": "https://www.ebi.ac.uk/gwas/rest/api/efoTraits"
        },
        "next": {
            "href": "https://www.ebi.ac.uk/gwas/rest/api/efoTraits?page=91&size=20"
        },
        "last": {
            "href": "https://www.ebi.ac.uk/gwas/rest/api/efoTraits?page=122&size=20"
        },
        "profile": {
            "href": "https://www.ebi.ac.uk/gwas/rest/api/profile/efoTraits"
        },
        "search": {
            "href": "https://www.ebi.ac.uk/gwas/rest/api/efoTraits/search"
        }
    },
    "page": {
        "size": 20,
        "totalElements": 2454,
        "totalPages": 123,
        "number": 90
    }
}
