{
    "_embedded": {
        "efoTraits": [
            {
                "trait": "physical activity",
                "uri": "http://www.ebi.ac.uk/efo/EFO_0003940",
                "shortForm": "EFO_0003940",
                "_links": {
                    "self": {
                        "href": "https://www.ebi.ac.uk/gwas/rest/api/efoTraits/EFO_0003940"
                    },
                    "efoTrait": {
                        "href": "https://www.ebi.ac.uk/gwas/rest/api/efoTraits/EFO_0003940"
                    },
                    "associationsByTraitSummary": {
                        "href": "https://www.ebi.ac.uk/gwas/rest/api/efoTraits/EFO_0003940/associations?projection=associationByEfoTrait"
                    },
                    "studies": {
                        "href": "https://www.ebi.ac.uk/gwas/rest/api/efoTraits/EFO_0003940/studies"
                    },
                    "associations": {
                        "href": "https://www.ebi.ac.uk/gwas/rest/api/efoTraits/EFO_0003940/associations"
                    }
                }
            },
            {
                "trait": "response to perphenazine",
                "uri": "http://purl.obolibrary.org/obo/GO_0097334",
                "shortForm": "GO_0097334",
                "_links": {
                    "self": {
                        "href": "https://www.ebi.ac.uk/gwas/rest/api/efoTraits/GO_0097334"
                    },
                    "efoTrait": {
                        "href": "https://www.ebi.ac.uk/gwas/rest/api/efoTraits/GO_0097334"
                    },
                    "associationsByTraitSummary": {
                        "href": "https://www.ebi.ac.uk/gwas/rest/api/efoTraits/GO_0097334/associations?projection=associationByEfoTrait"
                    },
                    "studies": {
                        "href": "https://www.ebi.ac.uk/gwas/rest/api/efoTraits/GO_0097334/studies"
                    },
                    "associations": {
                        "href": "https://www.ebi.ac.uk/gwas/rest/api/efoTraits/GO_0097334/associations"
                    }
                }
            },
            {
                "trait": "cardiac troponin T measurement",
                "uri": "http://www.ebi.ac.uk/efo/EFO_0005043",
                "shortForm": "EFO_0005043",
                "_links": {
                    "self": {
                        "href": "https://www.ebi.ac.uk/gwas/rest/api/efoTraits/EFO_0005043"
                    },
                    "efoTrait": {
                        "href": "https://www.ebi.ac.uk/gwas/rest/api/efoTraits/EFO_0005043"
                    },
                    "associationsByTraitSummary": {
                        "href": "https://www.ebi.ac.uk/gwas/rest/api/efoTraits/EFO_0005043/associations?projection=associationByEfoTrait"
                    },
                    "studies": {
                        "href": "https://www.ebi.ac.uk/gwas/rest/api/efoTraits/EFO_0005043/studies"
                    },
                    "associations": {
                        "href": "https://www.ebi.ac.uk/gwas/rest/api/efoTraits/EFO_0005043/associations"
                    }
                }
            },
            {
                "trait": "cataract",
                "uri": "http://www.ebi.ac.uk/efo/EFO_0001059",
                "shortForm": "EFO_0001059",
                "_links": {
                    "self": {
                        "href": "https://www.ebi.ac.uk/gwas/rest/api/efoTraits/EFO_0001059"
                    },
                    "efoTrait": {
                        "href": "https://www.ebi.ac.uk/gwas/rest/api/efoTraits/EFO_0001059"
                    },
                    "associationsByTraitSummary": {
                        "href": "https://www.ebi.ac.uk/gwas/rest/api/efoTraits/EFO_0001059/associations?projection=associationByEfoTrait"
                    },
                    "studies": {
                        "href": "https://www.ebi.ac.uk/gwas/rest/api/efoTraits/EFO_0001059/studies"
                    },
                    "associations": {
                        "href": "https://www.ebi.ac.uk/gwas/rest/api/efoTraits/EFO_0001059/associations"
                    }
                }
            },
            {
                "trait": "cognitive decline",
                "uri": "http://purl.obolibrary.org/obo/HP_0001268",
                "shortForm": "HP_0001268",
                "_links": {
                    "self": {
                        "href": "https://www.ebi.ac.uk/gwas/rest/api/efoTraits/HP_0001268"
                    },
                    "efoTrait": {
                        "href": "https://www.ebi.ac.uk/gwas/rest/api/efoTraits/HP_0001268"
                    },
                    "associationsByTraitSummary": {
                        "href": "https://www.ebi.ac.uk/gwas/rest/api/efoTraits/HP_0001268/associations?projection=associationByEfoTrait"
                    },
                    "studies": {
                        "href": "https://www.ebi.ac.uk/gwas/rest/api/efoTraits/HP_0001268/studies"
                    },
                    "associations": {
                        "href": "https://www.ebi.ac.uk/gwas/rest/api/efoTraits/HP_0001268/associations"
                    }
                }
            },
            {
                "trait": "hypertrophic cardiomyopathy",
                "uri": "http://www.ebi.ac.uk/efo/EFO_0000538",
                "shortForm": "EFO_0000538",
                "_links": {
                    "self": {
                        "href": "https://www.ebi.ac.uk/gwas/rest/api/efoTraits/EFO_0000538"
                    },
                    "efoTrait": {
                        "href": "https://www.ebi.ac.uk/gwas/rest/api/efoTraits/EFO_0000538"
                    },
                    "associationsByTraitSummary": {
                        "href": "https://www.ebi.ac.uk/gwas/rest/api/efoTraits/EFO_0000538/associations?projection=associationByEfoTrait"
                    },
                    "studies": {
                        "href": "https://www.ebi.ac.uk/gwas/rest/api/efoTraits/EFO_0000538/studies"
                    },
                    "associations": {
                        "href": "https://www.ebi.ac.uk/gwas/rest/api/efoTraits/EFO_0000538/associations"
                    }
                }
            },
            {
                "trait": "lean body mass",
                "uri": "http://www.ebi.ac.uk/efo/EFO_0004995",
                "shortForm": "EFO_0004995",
                "_links": {
                    "self": {
                        "href": "https://www.ebi.ac.uk/gwas/rest/api/efoTraits/EFO_0004995"
                    },
                    "efoTrait": {
                        "href": "https://www.ebi.ac.uk/gwas/rest/api/efoTraits/EFO_0004995"
                    },
                    "associationsByTraitSummary": {
                        "href": "https://www.ebi.ac.uk/gwas/rest/api/efoTraits/EFO_0004995/associations?projection=associationByEfoTrait"
                    },
                    "studies": {
                        "href": "https://www.ebi.ac.uk/gwas/rest/api/efoTraits/EFO_0004995/studies"
                    },
                    "associations": {
                        "href": "https://www.ebi.ac.uk/gwas/rest/api/efoTraits/EFO_0004995/associations"
                    }
                }
            },
            {
                "trait": "lipoprotein measurement",
                "uri": "http://www.ebi.ac.uk/efo/EFO_0004732",
                "shortForm": "EFO_0004732",
                "_links": {
                    "self": {
                        "href": "https://www.ebi.ac.uk/gwas/rest/api/efoTraits/EFO_0004732"
                    },
                    "efoTrait": {
                        "href": "https://www.ebi.ac.uk/gwas/rest/api/efoTraits/EFO_0004732"
                    },
                    "associationsByTraitSummary": {
                        "href": "https://www.ebi.ac.uk/gwas/rest/api/efoTraits/EFO_0004732/associations?projection=associationByEfoTrait"
                    },
                    "studies": {
                        "href": "https://www.ebi.ac.uk/gwas/rest/api/efoTraits/EFO_0004732/studies"
                    },
                    "associations": {
                        "href": "https://www.ebi.ac.uk/gwas/rest/api/efoTraits/EFO_0004732/associations"
                    }
                }
            },
            {
                "trait": "otitis media",
                "uri": "http://www.ebi.ac.uk/efo/EFO_0004992",
                "shortForm": "EFO_0004992",
                "_links": {
                    "self": {
                        "href": "https://www.ebi.ac.uk/gwas/rest/api/efoTraits/EFO_0004992"
                    },
                    "efoTrait": {
                        "href": "https://www.ebi.ac.uk/gwas/rest/api/efoTraits/EFO_0004992"
                    },
                    "associationsByTraitSummary": {
                        "href": "https://www.ebi.ac.uk/gwas/rest/api/efoTraits/EFO_0004992/associations?projection=associationByEfoTrait"
                    },
                    "studies": {
                        "href": "https://www.ebi.ac.uk/gwas/rest/api/efoTraits/EFO_0004992/studies"
                    },
                    "associations": {
                        "href": "https://www.ebi.ac.uk/gwas/rest/api/efoTraits/EFO_0004992/associations"
                    }
                }
            },
            {
                "trait": "pancreatitis",
                "uri": "http://www.ebi.ac.uk/efo/EFO_0000278",
                "shortForm": "EFO_0000278",
                "_links": {
                    "self": {
                        "href": "https://www.ebi.ac.uk/gwas/rest/api/efoTraits/EFO_0000278"
                    },
                    "efoTrait": {
                        "href": "https://www.ebi.ac.uk/gwas/rest/api/efoTraits/EFO_0000278"
                    },
                    "associationsByTraitSummary": {
                        "href": "https://www.ebi.ac.uk/gwas/rest/api/efoTraits/EFO_0000278/associations?projection=associationByEfoTrait"
                    },
                    "studies": {
                        "href": "https://www.ebi.ac.uk/gwas/rest/api/efoTraits/EFO_0000278/studies"
                    },
                    "associations": {
                        "href": "https://www.ebi.ac.uk/gwas/rest/api/efoTraits/EFO_0000278/associations"
                    }
                }
            },
            {
                "trait": "platelet reactivity measurement",
                "uri": "http://www.ebi.ac.uk/efo/EFO_0004985",
                "shortForm": "EFO_0004985",
                "_links": {
                    "self": {
                        "href": "https://www.ebi.ac.uk/gwas/rest/api/efoTraits/EFO_0004985"
                    },
                    "efoTrait": {
                        "href": "https://www.ebi.ac.uk/gwas/rest/api/efoTraits/EFO_0004985"
                    },
                    "associationsByTraitSummary": {
                        "href": "https://www.ebi.ac.uk/gwas/rest/api/efoTraits/EFO_0004985/associations?projection=associationByEfoTrait"
                    },
                    "studies": {
                        "href": "https://www.ebi.ac.uk/gwas/rest/api/efoTraits/EFO_0004985/studies"
                    },
                    "associations": {
                        "href": "https://www.ebi.ac.uk/gwas/rest/api/efoTraits/EFO_0004985/associations"
                    }
                }
            },
            {
                "trait": "response to methotrexate",
                "uri": "http://purl.obolibrary.org/obo/GO_0031427",
                "shortForm": "GO_0031427",
                "_links": {
                    "self": {
                        "href": "https://www.ebi.ac.uk/gwas/rest/api/efoTraits/GO_0031427"
                    },
                    "efoTrait": {
                        "href": "https://www.ebi.ac.uk/gwas/rest/api/efoTraits/GO_0031427"
                    },
                    "associationsByTraitSummary": {
                        "href": "https://www.ebi.ac.uk/gwas/rest/api/efoTraits/GO_0031427/associations?projection=associationByEfoTrait"
                    },
                    "studies": {
                        "href": "https://www.ebi.ac.uk/gwas/rest/api/efoTraits/GO_0031427/studies"
                    },
                    "associations": {
                        "href": "https://www.ebi.ac.uk/gwas/rest/api/efoTraits/GO_0031427/associations"
                    }
                }
            },
            {
                "trait": "response to tamsulosin",
                "uri": "http://purl.obolibrary.org/obo/GO_1901905",
                "shortForm": "GO_1901905",
                "_links": {
                    "self": {
                        "href": "https://www.ebi.ac.uk/gwas/rest/api/efoTraits/GO_1901905"
                    },
                    "efoTrait": {
                        "href": "https://www.ebi.ac.uk/gwas/rest/api/efoTraits/GO_1901905"
                    },
                    "associationsByTraitSummary": {
                        "href": "https://www.ebi.ac.uk/gwas/rest/api/efoTraits/GO_1901905/associations?projection=associationByEfoTrait"
                    },
                    "studies": {
                        "href": "https://www.ebi.ac.uk/gwas/rest/api/efoTraits/GO_1901905/studies"
                    },
                    "associations": {
                        "href": "https://www.ebi.ac.uk/gwas/rest/api/efoTraits/GO_1901905/associations"
                    }
                }
            },
            {
                "trait": "response to temozolomide",
                "uri": "http://purl.obolibrary.org/obo/GO_1990054",
                "shortForm": "GO_1990054",
                "_links": {
                    "self": {
                        "href": "https://www.ebi.ac.uk/gwas/rest/api/efoTraits/GO_1990054"
                    },
                    "efoTrait": {
                        "href": "https://www.ebi.ac.uk/gwas/rest/api/efoTraits/GO_1990054"
                    },
                    "associationsByTraitSummary": {
                        "href": "https://www.ebi.ac.uk/gwas/rest/api/efoTraits/GO_1990054/associations?projection=associationByEfoTrait"
                    },
                    "studies": {
                        "href": "https://www.ebi.ac.uk/gwas/rest/api/efoTraits/GO_1990054/studies"
                    },
                    "associations": {
                        "href": "https://www.ebi.ac.uk/gwas/rest/api/efoTraits/GO_1990054/associations"
                    }
                }
            },
            {
                "trait": "serum IgM measurement",
                "uri": "http://www.ebi.ac.uk/efo/EFO_0004993",
                "shortForm": "EFO_0004993",
                "_links": {
                    "self": {
                        "href": "https://www.ebi.ac.uk/gwas/rest/api/efoTraits/EFO_0004993"
                    },
                    "efoTrait": {
                        "href": "https://www.ebi.ac.uk/gwas/rest/api/efoTraits/EFO_0004993"
                    },
                    "associationsByTraitSummary": {
                        "href": "https://www.ebi.ac.uk/gwas/rest/api/efoTraits/EFO_0004993/associations?projection=associationByEfoTrait"
                    },
                    "studies": {
                        "href": "https://www.ebi.ac.uk/gwas/rest/api/efoTraits/EFO_0004993/studies"
                    },
                    "associations": {
                        "href": "https://www.ebi.ac.uk/gwas/rest/api/efoTraits/EFO_0004993/associations"
                    }
                }
            },
            {
                "trait": "visceral Leishmaniasis",
                "uri": "http://www.ebi.ac.uk/efo/EFO_0005045",
                "shortForm": "EFO_0005045",
                "_links": {
                    "self": {
                        "href": "https://www.ebi.ac.uk/gwas/rest/api/efoTraits/EFO_0005045"
                    },
                    "efoTrait": {
                        "href": "https://www.ebi.ac.uk/gwas/rest/api/efoTraits/EFO_0005045"
                    },
                    "associationsByTraitSummary": {
                        "href": "https://www.ebi.ac.uk/gwas/rest/api/efoTraits/EFO_0005045/associations?projection=associationByEfoTrait"
                    },
                    "studies": {
                        "href": "https://www.ebi.ac.uk/gwas/rest/api/efoTraits/EFO_0005045/studies"
                    },
                    "associations": {
                        "href": "https://www.ebi.ac.uk/gwas/rest/api/efoTraits/EFO_0005045/associations"
                    }
                }
            },
            {
                "trait": "response to opiate",
                "uri": "http://purl.obolibrary.org/obo/GO_0014072",
                "shortForm": "GO_0014072",
                "_links": {
                    "self": {
                        "href": "https://www.ebi.ac.uk/gwas/rest/api/efoTraits/GO_0014072"
                    },
                    "efoTrait": {
                        "href": "https://www.ebi.ac.uk/gwas/rest/api/efoTraits/GO_0014072"
                    },
                    "associationsByTraitSummary": {
                        "href": "https://www.ebi.ac.uk/gwas/rest/api/efoTraits/GO_0014072/associations?projection=associationByEfoTrait"
                    },
                    "studies": {
                        "href": "https://www.ebi.ac.uk/gwas/rest/api/efoTraits/GO_0014072/studies"
                    },
                    "associations": {
                        "href": "https://www.ebi.ac.uk/gwas/rest/api/efoTraits/GO_0014072/associations"
                    }
                }
            },
            {
                "trait": "erythrocyte measurement",
                "uri": "http://www.ebi.ac.uk/efo/EFO_0005047",
                "shortForm": "EFO_0005047",
                "_links": {
                    "self": {
                        "href": "https://www.ebi.ac.uk/gwas/rest/api/efoTraits/EFO_0005047"
                    },
                    "efoTrait": {
                        "href": "https://www.ebi.ac.uk/gwas/rest/api/efoTraits/EFO_0005047"
                    },
                    "associationsByTraitSummary": {
                        "href": "https://www.ebi.ac.uk/gwas/rest/api/efoTraits/EFO_0005047/associations?projection=associationByEfoTrait"
                    },
                    "studies": {
                        "href": "https://www.ebi.ac.uk/gwas/rest/api/efoTraits/EFO_0005047/studies"
                    },
                    "associations": {
                        "href": "https://www.ebi.ac.uk/gwas/rest/api/efoTraits/EFO_0005047/associations"
                    }
                }
            },
            {
                "trait": "response to quetiapine",
                "uri": "http://purl.obolibrary.org/obo/GO_0097335",
                "shortForm": "GO_0097335",
                "_links": {
                    "self": {
                        "href": "https://www.ebi.ac.uk/gwas/rest/api/efoTraits/GO_0097335"
                    },
                    "efoTrait": {
                        "href": "https://www.ebi.ac.uk/gwas/rest/api/efoTraits/GO_0097335"
                    },
                    "associationsByTraitSummary": {
                        "href": "https://www.ebi.ac.uk/gwas/rest/api/efoTraits/GO_0097335/associations?projection=associationByEfoTrait"
                    },
                    "studies": {
                        "href": "https://www.ebi.ac.uk/gwas/rest/api/efoTraits/GO_0097335/studies"
                    },
                    "associations": {
                        "href": "https://www.ebi.ac.uk/gwas/rest/api/efoTraits/GO_0097335/associations"
                    }
                }
            },
            {
                "trait": "response to risperidone",
                "uri": "http://purl.obolibrary.org/obo/GO_0097336",
                "shortForm": "GO_0097336",
                "_links": {
                    "self": {
                        "href": "https://www.ebi.ac.uk/gwas/rest/api/efoTraits/GO_0097336"
                    },
                    "efoTrait": {
                        "href": "https://www.ebi.ac.uk/gwas/rest/api/efoTraits/GO_0097336"
                    },
                    "associationsByTraitSummary": {
                        "href": "https://www.ebi.ac.uk/gwas/rest/api/efoTraits/GO_0097336/associations?projection=associationByEfoTrait"
                    },
                    "studies": {
                        "href": "https://www.ebi.ac.uk/gwas/rest/api/efoTraits/GO_0097336/studies"
                    },
                    "associations": {
                        "href": "https://www.ebi.ac.uk/gwas/rest/api/efoTraits/GO_0097336/associations"
                    }
                }
            }
        ]
    },
    "_links": {
        "first": {
            "href": "https://www.ebi.ac.uk/gwas/rest/api/efoTraits?page=0&size=20"
        },
        "prev": {
            "href": "https://www.ebi.ac.uk/gwas/rest/api/efoTraits?page=0&size=20"
        },
        "self": {
            "href": "https://www.ebi.ac.uk/gwas/rest/api/efoTraits"
        },
        "next": {
            "href": "https://www.ebi.ac.uk/gwas/rest/api/efoTraits?page=2&size=20"
        },
        "last": {
            "href": "https://www.ebi.ac.uk/gwas/rest/api/efoTraits?page=122&size=20"
        },
        "profile": {
            "href": "https://www.ebi.ac.uk/gwas/rest/api/profile/efoTraits"
        },
        "search": {
            "href": "https://www.ebi.ac.uk/gwas/rest/api/efoTraits/search"
        }
    },
    "page": {
        "size": 20,
        "totalElements": 2454,
        "totalPages": 123,
        "number": 1
    }
}
