…
To search in multiple regions, construct your genomic range list with those locations just like in the previous example. For example, let's search now for variants in chromosome X and Y, both in range 13000000--15000000:


```r
my_genomic_range <- list(
  chromosome = c('X', 'Y'),
  start = c(13000000L, 13000000L),
  end = c(15000000L, 15000000L))

chr_XY_variants <- get_variants(genomic_range = my_genomic_range)
chr_XY_variants@variants[c('variant_id',
                           'chromosome_name',
                           'chromosome_position')]
#> # A tibble: 22 × 3
#>    variant_id  chromosome_name chromosome_position
#>    <chr>       <chr>                         <int>
#>  1 rs111689944 X                          13494655
#>  2 rs73633565  X                          13459192
#>  3 rs5980075   X                          14932409
#>  4 rs142204301 X                          13358691
#>  5 rs2361151   X                          13503433
#>  6 rs35164803  X                          14911253
#>  7 rs12558341  X                          13695943
#>  8 rs138331350 X                          14841981
#>  9 rs66819623  X                          13936278
#> 10 rs61273829  X                          14150876
#> # … with 12 more rows
#> # ℹ Use `print(n = ...)` to see more rows
```
…
How to know what are the cytogenetic bands for querying? We provide a dataset (dataframe) named `cytogenetic_bands` that you can use:


```r
# ?cytogenetic_bands for more details.
cytogenetic_bands
#> # A tibble: 862 × 8
#>    cytogenetic_band chromosome    start      end length assem…¹ stain last_…²
#>    <chr>            <chr>         <int>    <int>  <dbl> <chr>   <chr> <chr>  
#>  1 1p36.33          1                 1  2300000  2.3e6 GRCh38  gneg  Thu Ju…
#>  2 1p36.32          1           2300001  5300000  3  e6 GRCh38  gpos… Thu Ju…
#>  3 1p36.31          1           5300001  7100000  1.8e6 GRCh38  gneg  Thu Ju…
#>  4 1p36.23          1           7100001  9100000  2  e6 GRCh38  gpos… Thu Ju…
#>  5 1p36.22          1           9100001 12500000  3.4e6 GRCh38  gneg  Thu Ju…
#>  6 1p36.21          1          12500001 15900000  3.4e6 GRCh38  gpos… Thu Ju…
#>  7 1p36.13          1          15900001 20100000  4.2e6 GRCh38  gneg  Thu Ju…
#>  8 1p36.12          1          20100001 23600000  3.5e6 GRCh38  gpos… Thu Ju…
#>  9 1p36.11          1          23600001 27600000  4  e6 GRCh38  gneg  Thu Ju…
#> 10 1p35.3           1          27600001 29900000  2.3e6 GRCh38  gpos… Thu Ju…
#> # … with 852 more rows, and abbreviated variable names ¹​assembly,
#> #   ²​last_download_date
#> # ℹ Use `print(n = ...)` to see more rows
```
…
Use `set_operation = 'union'` to combine results in an OR fashion:


```r
my_variants_OR <- get_variants(
  efo_trait = 'triple-negative breast cancer',
  gene_name = 'MDM4',
  set_operation = 'union')

my_variants_OR@variants[c('variant_id',
                       'chromosome_name',
                       'chromosome_position',
                       'chromosome_region')]
#> # A tibble: 46 × 4
#>    variant_id  chromosome_name chromosome_position chromosome_region
#>    <chr>       <chr>                         <int> <chr>            
#>  1 rs3747636   1                         204434531 1q32.1           
#>  2 rs10793765  1                         204580247 1q32.1           
#>  3 rs116661163 1                         204641544 1q32.1           
#>  4 rs12083887  1                         118339066 1p12             
#>  5 rs12143943  1                         204602943 1q32.1           
#>  6 rs1008833   1                         204457167 1q32.1           
#>  7 rs2137255   1                         204457245 1q32.1           
#>  8 rs2290854   1                         204546897 1q32.1           
#>  9 rs3789044   1                         204619973 1q32.1           
#> 10 rs12036042  1                         204500186 1q32.1           
#> # … with 36 more rows
#> # ℹ Use `print(n = ...)` to see more rows
```
…
With `set_operation = 'intersection'`, as in the code above, we get variants whose associated `efo_trait` is equal to `'triple-negative breast cancer'` and that are associated with gene `'MDM4'`, i.e., only variants meeting both conditions simultaneously are retrieved.

Please note that almost all search criteria to be used with the retrieval functions are vectorised, meaning that you can use multiple values with the same search criterion. In these cases results are always combined in an OR fashion.

In the following example, we will be using the gene name as the only search criterion. If we pass a vector of gene names then we get all variants that are associated with EITHER (OR) genes.


```r
my_variants <- get_variants(gene_name = c('RNU6-367P', 'ABHD5'))

my_variants@variants[c('variant_id',
                       'chromosome_name',
                       'chromosome_position',
                       'chromosome_region')]
#> # A tibble: 28 × 4
#>    variant_id  chromosome_name chromosome_position chromosome_region
#>    <chr>       <chr>                         <int> <chr>            
#>  1 rs7625896   3                          44021069 3p21.33          
#>  2 rs142242702 3                          44122660 3p21.32          
#>  3 rs1554654   3                          44002852 3p21.33          
#>  4 rs7619427   3                          44035549 3p21.33          
#>  5 rs11718455  3                          44015406 3p21.33          
#>  6 rs73076675  3                          43924731 3p21.33          
#>  7 rs113706999 3                          44117664 3p21.32          
#>  8 rs6441814   3                          44007622 3p21.33          
#>  9 rs4017425   3                          43987272 3p21.33          
#> 10 rs79644353  3                          44135707 3p21.32          
#> # … with 18 more rows
#> # ℹ Use `print(n = ...)` to see more rows
```
…
