{
    "_embedded": {
        "efoTraits": [
            {
                "trait": "CCL2 measurement",
                "uri": "http://www.ebi.ac.uk/efo/EFO_0004749",
                "shortForm": "EFO_0004749",
                "_links": {
                    "self": {
                        "href": "https://www.ebi.ac.uk/gwas/rest/api/efoTraits/EFO_0004749"
                    },
                    "efoTrait": {
                        "href": "https://www.ebi.ac.uk/gwas/rest/api/efoTraits/EFO_0004749"
                    },
                    "associationsByTraitSummary": {
                        "href": "https://www.ebi.ac.uk/gwas/rest/api/efoTraits/EFO_0004749/associations?projection=associationByEfoTrait"
                    },
                    "associations": {
                        "href": "https://www.ebi.ac.uk/gwas/rest/api/efoTraits/EFO_0004749/associations"
                    },
                    "studies": {
                        "href": "https://www.ebi.ac.uk/gwas/rest/api/efoTraits/EFO_0004749/studies"
                    }
                }
            },
            {
                "trait": "t-tau measurement",
                "uri": "http://www.ebi.ac.uk/efo/EFO_0004760",
                "shortForm": "EFO_0004760",
                "_links": {
                    "self": {
                        "href": "https://www.ebi.ac.uk/gwas/rest/api/efoTraits/EFO_0004760"
                    },
                    "efoTrait": {
                        "href": "https://www.ebi.ac.uk/gwas/rest/api/efoTraits/EFO_0004760"
                    },
                    "associationsByTraitSummary": {
                        "href": "https://www.ebi.ac.uk/gwas/rest/api/efoTraits/EFO_0004760/associations?projection=associationByEfoTrait"
                    },
                    "associations": {
                        "href": "https://www.ebi.ac.uk/gwas/rest/api/efoTraits/EFO_0004760/associations"
                    },
                    "studies": {
                        "href": "https://www.ebi.ac.uk/gwas/rest/api/efoTraits/EFO_0004760/studies"
                    }
                }
            },
            {
                "trait": "uric acid measurement",
                "uri": "http://www.ebi.ac.uk/efo/EFO_0004761",
                "shortForm": "EFO_0004761",
                "_links": {
                    "self": {
                        "href": "https://www.ebi.ac.uk/gwas/rest/api/efoTraits/EFO_0004761"
                    },
                    "efoTrait": {
                        "href": "https://www.ebi.ac.uk/gwas/rest/api/efoTraits/EFO_0004761"
                    },
                    "associationsByTraitSummary": {
                        "href": "https://www.ebi.ac.uk/gwas/rest/api/efoTraits/EFO_0004761/associations?projection=associationByEfoTrait"
                    },
                    "associations": {
                        "href": "https://www.ebi.ac.uk/gwas/rest/api/efoTraits/EFO_0004761/associations"
                    },
                    "studies": {
                        "href": "https://www.ebi.ac.uk/gwas/rest/api/efoTraits/EFO_0004761/studies"
                    }
                }
            },
            {
                "trait": "vascular endothelial growth factor measurement",
                "uri": "http://www.ebi.ac.uk/efo/EFO_0004762",
                "shortForm": "EFO_0004762",
                "_links": {
                    "self": {
                        "href": "https://www.ebi.ac.uk/gwas/rest/api/efoTraits/EFO_0004762"
                    },
                    "efoTrait": {
                        "href": "https://www.ebi.ac.uk/gwas/rest/api/efoTraits/EFO_0004762"
                    },
                    "associationsByTraitSummary": {
                        "href": "https://www.ebi.ac.uk/gwas/rest/api/efoTraits/EFO_0004762/associations?projection=associationByEfoTrait"
                    },
                    "associations": {
                        "href": "https://www.ebi.ac.uk/gwas/rest/api/efoTraits/EFO_0004762/associations"
                    },
                    "studies": {
                        "href": "https://www.ebi.ac.uk/gwas/rest/api/efoTraits/EFO_0004762/studies"
                    }
                }
            },
            {
                "trait": "p-tau measurement",
                "uri": "http://www.ebi.ac.uk/efo/EFO_0004763",
                "shortForm": "EFO_0004763",
                "_links": {
                    "self": {
                        "href": "https://www.ebi.ac.uk/gwas/rest/api/efoTraits/EFO_0004763"
                    },
                    "efoTrait": {
                        "href": "https://www.ebi.ac.uk/gwas/rest/api/efoTraits/EFO_0004763"
                    },
                    "associationsByTraitSummary": {
                        "href": "https://www.ebi.ac.uk/gwas/rest/api/efoTraits/EFO_0004763/associations?projection=associationByEfoTrait"
                    },
                    "associations": {
                        "href": "https://www.ebi.ac.uk/gwas/rest/api/efoTraits/EFO_0004763/associations"
                    },
                    "studies": {
                        "href": "https://www.ebi.ac.uk/gwas/rest/api/efoTraits/EFO_0004763/studies"
                    }
                }
            },
            {
                "trait": "adipose tissue measurement",
                "uri": "http://www.ebi.ac.uk/efo/EFO_0004764",
                "shortForm": "EFO_0004764",
                "_links": {
                    "self": {
                        "href": "https://www.ebi.ac.uk/gwas/rest/api/efoTraits/EFO_0004764"
                    },
                    "efoTrait": {
                        "href": "https://www.ebi.ac.uk/gwas/rest/api/efoTraits/EFO_0004764"
                    },
                    "associationsByTraitSummary": {
                        "href": "https://www.ebi.ac.uk/gwas/rest/api/efoTraits/EFO_0004764/associations?projection=associationByEfoTrait"
                    },
                    "associations": {
                        "href": "https://www.ebi.ac.uk/gwas/rest/api/efoTraits/EFO_0004764/associations"
                    },
                    "studies": {
                        "href": "https://www.ebi.ac.uk/gwas/rest/api/efoTraits/EFO_0004764/studies"
                    }
                }
            },
            {
                "trait": "ovarian reserve",
                "uri": "http://www.ebi.ac.uk/efo/EFO_0004770",
                "shortForm": "EFO_0004770",
                "_links": {
                    "self": {
                        "href": "https://www.ebi.ac.uk/gwas/rest/api/efoTraits/EFO_0004770"
                    },
                    "efoTrait": {
                        "href": "https://www.ebi.ac.uk/gwas/rest/api/efoTraits/EFO_0004770"
                    },
                    "associationsByTraitSummary": {
                        "href": "https://www.ebi.ac.uk/gwas/rest/api/efoTraits/EFO_0004770/associations?projection=associationByEfoTrait"
                    },
                    "associations": {
                        "href": "https://www.ebi.ac.uk/gwas/rest/api/efoTraits/EFO_0004770/associations"
                    },
                    "studies": {
                        "href": "https://www.ebi.ac.uk/gwas/rest/api/efoTraits/EFO_0004770/studies"
                    }
                }
            },
            {
                "trait": "visual cortical surface area measurement",
                "uri": "http://www.ebi.ac.uk/efo/EFO_0004771",
                "shortForm": "EFO_0004771",
                "_links": {
                    "self": {
                        "href": "https://www.ebi.ac.uk/gwas/rest/api/efoTraits/EFO_0004771"
                    },
                    "efoTrait": {
                        "href": "https://www.ebi.ac.uk/gwas/rest/api/efoTraits/EFO_0004771"
                    },
                    "associationsByTraitSummary": {
                        "href": "https://www.ebi.ac.uk/gwas/rest/api/efoTraits/EFO_0004771/associations?projection=associationByEfoTrait"
                    },
                    "associations": {
                        "href": "https://www.ebi.ac.uk/gwas/rest/api/efoTraits/EFO_0004771/associations"
                    },
                    "studies": {
                        "href": "https://www.ebi.ac.uk/gwas/rest/api/efoTraits/EFO_0004771/studies"
                    }
                }
            },
            {
                "trait": "early onset hypertension",
                "uri": "http://www.ebi.ac.uk/efo/EFO_0004772",
                "shortForm": "EFO_0004772",
                "_links": {
                    "self": {
                        "href": "https://www.ebi.ac.uk/gwas/rest/api/efoTraits/EFO_0004772"
                    },
                    "efoTrait": {
                        "href": "https://www.ebi.ac.uk/gwas/rest/api/efoTraits/EFO_0004772"
                    },
                    "associationsByTraitSummary": {
                        "href": "https://www.ebi.ac.uk/gwas/rest/api/efoTraits/EFO_0004772/associations?projection=associationByEfoTrait"
                    },
                    "associations": {
                        "href": "https://www.ebi.ac.uk/gwas/rest/api/efoTraits/EFO_0004772/associations"
                    },
                    "studies": {
                        "href": "https://www.ebi.ac.uk/gwas/rest/api/efoTraits/EFO_0004772/studies"
                    }
                }
            },
            {
                "trait": "toxic epidermal necrolysis",
                "uri": "http://www.ebi.ac.uk/efo/EFO_0004775",
                "shortForm": "EFO_0004775",
                "_links": {
                    "self": {
                        "href": "https://www.ebi.ac.uk/gwas/rest/api/efoTraits/EFO_0004775"
                    },
                    "efoTrait": {
                        "href": "https://www.ebi.ac.uk/gwas/rest/api/efoTraits/EFO_0004775"
                    },
                    "associationsByTraitSummary": {
                        "href": "https://www.ebi.ac.uk/gwas/rest/api/efoTraits/EFO_0004775/associations?projection=associationByEfoTrait"
                    },
                    "associations": {
                        "href": "https://www.ebi.ac.uk/gwas/rest/api/efoTraits/EFO_0004775/associations"
                    },
                    "studies": {
                        "href": "https://www.ebi.ac.uk/gwas/rest/api/efoTraits/EFO_0004775/studies"
                    }
                }
            },
            {
                "trait": "alcohol and nicotine codependence",
                "uri": "http://www.ebi.ac.uk/efo/EFO_0004776",
                "shortForm": "EFO_0004776",
                "_links": {
                    "self": {
                        "href": "https://www.ebi.ac.uk/gwas/rest/api/efoTraits/EFO_0004776"
                    },
                    "efoTrait": {
                        "href": "https://www.ebi.ac.uk/gwas/rest/api/efoTraits/EFO_0004776"
                    },
                    "associationsByTraitSummary": {
                        "href": "https://www.ebi.ac.uk/gwas/rest/api/efoTraits/EFO_0004776/associations?projection=associationByEfoTrait"
                    },
                    "associations": {
                        "href": "https://www.ebi.ac.uk/gwas/rest/api/efoTraits/EFO_0004776/associations"
                    },
                    "studies": {
                        "href": "https://www.ebi.ac.uk/gwas/rest/api/efoTraits/EFO_0004776/studies"
                    }
                }
            },
            {
                "trait": "alcohol withdrawal",
                "uri": "http://www.ebi.ac.uk/efo/EFO_0004777",
                "shortForm": "EFO_0004777",
                "_links": {
                    "self": {
                        "href": "https://www.ebi.ac.uk/gwas/rest/api/efoTraits/EFO_0004777"
                    },
                    "efoTrait": {
                        "href": "https://www.ebi.ac.uk/gwas/rest/api/efoTraits/EFO_0004777"
                    },
                    "associationsByTraitSummary": {
                        "href": "https://www.ebi.ac.uk/gwas/rest/api/efoTraits/EFO_0004777/associations?projection=associationByEfoTrait"
                    },
                    "associations": {
                        "href": "https://www.ebi.ac.uk/gwas/rest/api/efoTraits/EFO_0004777/associations"
                    },
                    "studies": {
                        "href": "https://www.ebi.ac.uk/gwas/rest/api/efoTraits/EFO_0004777/studies"
                    }
                }
            },
            {
                "trait": "self rated health",
                "uri": "http://www.ebi.ac.uk/efo/EFO_0004778",
                "shortForm": "EFO_0004778",
                "_links": {
                    "self": {
                        "href": "https://www.ebi.ac.uk/gwas/rest/api/efoTraits/EFO_0004778"
                    },
                    "efoTrait": {
                        "href": "https://www.ebi.ac.uk/gwas/rest/api/efoTraits/EFO_0004778"
                    },
                    "associationsByTraitSummary": {
                        "href": "https://www.ebi.ac.uk/gwas/rest/api/efoTraits/EFO_0004778/associations?projection=associationByEfoTrait"
                    },
                    "associations": {
                        "href": "https://www.ebi.ac.uk/gwas/rest/api/efoTraits/EFO_0004778/associations"
                    },
                    "studies": {
                        "href": "https://www.ebi.ac.uk/gwas/rest/api/efoTraits/EFO_0004778/studies"
                    }
                }
            },
            {
                "trait": "chaos measure",
                "uri": "http://www.ebi.ac.uk/efo/EFO_0004779",
                "shortForm": "EFO_0004779",
                "_links": {
                    "self": {
                        "href": "https://www.ebi.ac.uk/gwas/rest/api/efoTraits/EFO_0004779"
                    },
                    "efoTrait": {
                        "href": "https://www.ebi.ac.uk/gwas/rest/api/efoTraits/EFO_0004779"
                    },
                    "associationsByTraitSummary": {
                        "href": "https://www.ebi.ac.uk/gwas/rest/api/efoTraits/EFO_0004779/associations?projection=associationByEfoTrait"
                    },
                    "associations": {
                        "href": "https://www.ebi.ac.uk/gwas/rest/api/efoTraits/EFO_0004779/associations"
                    },
                    "studies": {
                        "href": "https://www.ebi.ac.uk/gwas/rest/api/efoTraits/EFO_0004779/studies"
                    }
                }
            },
            {
                "trait": "behavior or behavioral disorder measurement",
                "uri": "http://www.ebi.ac.uk/efo/EFO_0004782",
                "shortForm": "EFO_0004782",
                "_links": {
                    "self": {
                        "href": "https://www.ebi.ac.uk/gwas/rest/api/efoTraits/EFO_0004782"
                    },
                    "efoTrait": {
                        "href": "https://www.ebi.ac.uk/gwas/rest/api/efoTraits/EFO_0004782"
                    },
                    "associationsByTraitSummary": {
                        "href": "https://www.ebi.ac.uk/gwas/rest/api/efoTraits/EFO_0004782/associations?projection=associationByEfoTrait"
                    },
                    "associations": {
                        "href": "https://www.ebi.ac.uk/gwas/rest/api/efoTraits/EFO_0004782/associations"
                    },
                    "studies": {
                        "href": "https://www.ebi.ac.uk/gwas/rest/api/efoTraits/EFO_0004782/studies"
                    }
                }
            },
            {
                "trait": "self reported educational attainment",
                "uri": "http://www.ebi.ac.uk/efo/EFO_0004784",
                "shortForm": "EFO_0004784",
                "_links": {
                    "self": {
                        "href": "https://www.ebi.ac.uk/gwas/rest/api/efoTraits/EFO_0004784"
                    },
                    "efoTrait": {
                        "href": "https://www.ebi.ac.uk/gwas/rest/api/efoTraits/EFO_0004784"
                    },
                    "associationsByTraitSummary": {
                        "href": "https://www.ebi.ac.uk/gwas/rest/api/efoTraits/EFO_0004784/associations?projection=associationByEfoTrait"
                    },
                    "associations": {
                        "href": "https://www.ebi.ac.uk/gwas/rest/api/efoTraits/EFO_0004784/associations"
                    },
                    "studies": {
                        "href": "https://www.ebi.ac.uk/gwas/rest/api/efoTraits/EFO_0004784/studies"
                    }
                }
            },
            {
                "trait": "south texas assessment of neurocognition",
                "uri": "http://www.ebi.ac.uk/efo/EFO_0004785",
                "shortForm": "EFO_0004785",
                "_links": {
                    "self": {
                        "href": "https://www.ebi.ac.uk/gwas/rest/api/efoTraits/EFO_0004785"
                    },
                    "efoTrait": {
                        "href": "https://www.ebi.ac.uk/gwas/rest/api/efoTraits/EFO_0004785"
                    },
                    "associationsByTraitSummary": {
                        "href": "https://www.ebi.ac.uk/gwas/rest/api/efoTraits/EFO_0004785/associations?projection=associationByEfoTrait"
                    },
                    "associations": {
                        "href": "https://www.ebi.ac.uk/gwas/rest/api/efoTraits/EFO_0004785/associations"
                    },
                    "studies": {
                        "href": "https://www.ebi.ac.uk/gwas/rest/api/efoTraits/EFO_0004785/studies"
                    }
                }
            },
            {
                "trait": "atrial natriuretic factor measurement",
                "uri": "http://www.ebi.ac.uk/efo/EFO_0004789",
                "shortForm": "EFO_0004789",
                "_links": {
                    "self": {
                        "href": "https://www.ebi.ac.uk/gwas/rest/api/efoTraits/EFO_0004789"
                    },
                    "efoTrait": {
                        "href": "https://www.ebi.ac.uk/gwas/rest/api/efoTraits/EFO_0004789"
                    },
                    "associationsByTraitSummary": {
                        "href": "https://www.ebi.ac.uk/gwas/rest/api/efoTraits/EFO_0004789/associations?projection=associationByEfoTrait"
                    },
                    "associations": {
                        "href": "https://www.ebi.ac.uk/gwas/rest/api/efoTraits/EFO_0004789/associations"
                    },
                    "studies": {
                        "href": "https://www.ebi.ac.uk/gwas/rest/api/efoTraits/EFO_0004789/studies"
                    }
                }
            },
            {
                "trait": "CD40 ligand measurement",
                "uri": "http://www.ebi.ac.uk/efo/EFO_0004790",
                "shortForm": "EFO_0004790",
                "_links": {
                    "self": {
                        "href": "https://www.ebi.ac.uk/gwas/rest/api/efoTraits/EFO_0004790"
                    },
                    "efoTrait": {
                        "href": "https://www.ebi.ac.uk/gwas/rest/api/efoTraits/EFO_0004790"
                    },
                    "associationsByTraitSummary": {
                        "href": "https://www.ebi.ac.uk/gwas/rest/api/efoTraits/EFO_0004790/associations?projection=associationByEfoTrait"
                    },
                    "associations": {
                        "href": "https://www.ebi.ac.uk/gwas/rest/api/efoTraits/EFO_0004790/associations"
                    },
                    "studies": {
                        "href": "https://www.ebi.ac.uk/gwas/rest/api/efoTraits/EFO_0004790/studies"
                    }
                }
            },
            {
                "trait": "tissue plasminogen activator measurement",
                "uri": "http://www.ebi.ac.uk/efo/EFO_0004791",
                "shortForm": "EFO_0004791",
                "_links": {
                    "self": {
                        "href": "https://www.ebi.ac.uk/gwas/rest/api/efoTraits/EFO_0004791"
                    },
                    "efoTrait": {
                        "href": "https://www.ebi.ac.uk/gwas/rest/api/efoTraits/EFO_0004791"
                    },
                    "associationsByTraitSummary": {
                        "href": "https://www.ebi.ac.uk/gwas/rest/api/efoTraits/EFO_0004791/associations?projection=associationByEfoTrait"
                    },
                    "associations": {
                        "href": "https://www.ebi.ac.uk/gwas/rest/api/efoTraits/EFO_0004791/associations"
                    },
                    "studies": {
                        "href": "https://www.ebi.ac.uk/gwas/rest/api/efoTraits/EFO_0004791/studies"
                    }
                }
            }
        ]
    },
    "_links": {
        "first": {
            "href": "https://www.ebi.ac.uk/gwas/rest/api/efoTraits?page=0&size=20"
        },
        "prev": {
            "href": "https://www.ebi.ac.uk/gwas/rest/api/efoTraits?page=18&size=20"
        },
        "self": {
            "href": "https://www.ebi.ac.uk/gwas/rest/api/efoTraits"
        },
        "next": {
            "href": "https://www.ebi.ac.uk/gwas/rest/api/efoTraits?page=20&size=20"
        },
        "last": {
            "href": "https://www.ebi.ac.uk/gwas/rest/api/efoTraits?page=122&size=20"
        },
        "profile": {
            "href": "https://www.ebi.ac.uk/gwas/rest/api/profile/efoTraits"
        },
        "search": {
            "href": "https://www.ebi.ac.uk/gwas/rest/api/efoTraits/search"
        }
    },
    "page": {
        "size": 20,
        "totalElements": 2454,
        "totalPages": 123,
        "number": 19
    }
}
