{
    "_embedded": {
        "efoTraits": [
            {
                "trait": "alcohol dehydrogenase [NADP+] measurement",
                "uri": "http://www.ebi.ac.uk/efo/EFO_0008017",
                "shortForm": "EFO_0008017",
                "_links": {
                    "self": {
                        "href": "https://www.ebi.ac.uk/gwas/rest/api/efoTraits/EFO_0008017"
                    },
                    "efoTrait": {
                        "href": "https://www.ebi.ac.uk/gwas/rest/api/efoTraits/EFO_0008017"
                    },
                    "associationsByTraitSummary": {
                        "href": "https://www.ebi.ac.uk/gwas/rest/api/efoTraits/EFO_0008017/associations?projection=associationByEfoTrait"
                    },
                    "associations": {
                        "href": "https://www.ebi.ac.uk/gwas/rest/api/efoTraits/EFO_0008017/associations"
                    },
                    "studies": {
                        "href": "https://www.ebi.ac.uk/gwas/rest/api/efoTraits/EFO_0008017/studies"
                    }
                }
            },
            {
                "trait": "alcoholic pancreatitis",
                "uri": "http://www.ebi.ac.uk/efo/EFO_1002013",
                "shortForm": "EFO_1002013",
                "_links": {
                    "self": {
                        "href": "https://www.ebi.ac.uk/gwas/rest/api/efoTraits/EFO_1002013"
                    },
                    "efoTrait": {
                        "href": "https://www.ebi.ac.uk/gwas/rest/api/efoTraits/EFO_1002013"
                    },
                    "associationsByTraitSummary": {
                        "href": "https://www.ebi.ac.uk/gwas/rest/api/efoTraits/EFO_1002013/associations?projection=associationByEfoTrait"
                    },
                    "associations": {
                        "href": "https://www.ebi.ac.uk/gwas/rest/api/efoTraits/EFO_1002013/associations"
                    },
                    "studies": {
                        "href": "https://www.ebi.ac.uk/gwas/rest/api/efoTraits/EFO_1002013/studies"
                    }
                }
            },
            {
                "trait": "alpha-1-antichymotrypsin complex measurement",
                "uri": "http://www.ebi.ac.uk/efo/EFO_0008018",
                "shortForm": "EFO_0008018",
                "_links": {
                    "self": {
                        "href": "https://www.ebi.ac.uk/gwas/rest/api/efoTraits/EFO_0008018"
                    },
                    "efoTrait": {
                        "href": "https://www.ebi.ac.uk/gwas/rest/api/efoTraits/EFO_0008018"
                    },
                    "associationsByTraitSummary": {
                        "href": "https://www.ebi.ac.uk/gwas/rest/api/efoTraits/EFO_0008018/associations?projection=associationByEfoTrait"
                    },
                    "associations": {
                        "href": "https://www.ebi.ac.uk/gwas/rest/api/efoTraits/EFO_0008018/associations"
                    },
                    "studies": {
                        "href": "https://www.ebi.ac.uk/gwas/rest/api/efoTraits/EFO_0008018/studies"
                    }
                }
            },
            {
                "trait": "alpha-1-antichymotrypsin measurement",
                "uri": "http://www.ebi.ac.uk/efo/EFO_0008019",
                "shortForm": "EFO_0008019",
                "_links": {
                    "self": {
                        "href": "https://www.ebi.ac.uk/gwas/rest/api/efoTraits/EFO_0008019"
                    },
                    "efoTrait": {
                        "href": "https://www.ebi.ac.uk/gwas/rest/api/efoTraits/EFO_0008019"
                    },
                    "associationsByTraitSummary": {
                        "href": "https://www.ebi.ac.uk/gwas/rest/api/efoTraits/EFO_0008019/associations?projection=associationByEfoTrait"
                    },
                    "associations": {
                        "href": "https://www.ebi.ac.uk/gwas/rest/api/efoTraits/EFO_0008019/associations"
                    },
                    "studies": {
                        "href": "https://www.ebi.ac.uk/gwas/rest/api/efoTraits/EFO_0008019/studies"
                    }
                }
            },
            {
                "trait": "alpha-2-HS-glycoprotein measurement",
                "uri": "http://www.ebi.ac.uk/efo/EFO_0008020",
                "shortForm": "EFO_0008020",
                "_links": {
                    "self": {
                        "href": "https://www.ebi.ac.uk/gwas/rest/api/efoTraits/EFO_0008020"
                    },
                    "efoTrait": {
                        "href": "https://www.ebi.ac.uk/gwas/rest/api/efoTraits/EFO_0008020"
                    },
                    "associationsByTraitSummary": {
                        "href": "https://www.ebi.ac.uk/gwas/rest/api/efoTraits/EFO_0008020/associations?projection=associationByEfoTrait"
                    },
                    "associations": {
                        "href": "https://www.ebi.ac.uk/gwas/rest/api/efoTraits/EFO_0008020/associations"
                    },
                    "studies": {
                        "href": "https://www.ebi.ac.uk/gwas/rest/api/efoTraits/EFO_0008020/studies"
                    }
                }
            },
            {
                "trait": "alpha-2-macroglobulin receptor-associated protein measurement",
                "uri": "http://www.ebi.ac.uk/efo/EFO_0008021",
                "shortForm": "EFO_0008021",
                "_links": {
                    "self": {
                        "href": "https://www.ebi.ac.uk/gwas/rest/api/efoTraits/EFO_0008021"
                    },
                    "efoTrait": {
                        "href": "https://www.ebi.ac.uk/gwas/rest/api/efoTraits/EFO_0008021"
                    },
                    "associationsByTraitSummary": {
                        "href": "https://www.ebi.ac.uk/gwas/rest/api/efoTraits/EFO_0008021/associations?projection=associationByEfoTrait"
                    },
                    "associations": {
                        "href": "https://www.ebi.ac.uk/gwas/rest/api/efoTraits/EFO_0008021/associations"
                    },
                    "studies": {
                        "href": "https://www.ebi.ac.uk/gwas/rest/api/efoTraits/EFO_0008021/studies"
                    }
                }
            },
            {
                "trait": "angiogenin measurement",
                "uri": "http://www.ebi.ac.uk/efo/EFO_0008022",
                "shortForm": "EFO_0008022",
                "_links": {
                    "self": {
                        "href": "https://www.ebi.ac.uk/gwas/rest/api/efoTraits/EFO_0008022"
                    },
                    "efoTrait": {
                        "href": "https://www.ebi.ac.uk/gwas/rest/api/efoTraits/EFO_0008022"
                    },
                    "associationsByTraitSummary": {
                        "href": "https://www.ebi.ac.uk/gwas/rest/api/efoTraits/EFO_0008022/associations?projection=associationByEfoTrait"
                    },
                    "associations": {
                        "href": "https://www.ebi.ac.uk/gwas/rest/api/efoTraits/EFO_0008022/associations"
                    },
                    "studies": {
                        "href": "https://www.ebi.ac.uk/gwas/rest/api/efoTraits/EFO_0008022/studies"
                    }
                }
            },
            {
                "trait": "angiopoietin-1 receptor, soluble measurement",
                "uri": "http://www.ebi.ac.uk/efo/EFO_0008023",
                "shortForm": "EFO_0008023",
                "_links": {
                    "self": {
                        "href": "https://www.ebi.ac.uk/gwas/rest/api/efoTraits/EFO_0008023"
                    },
                    "efoTrait": {
                        "href": "https://www.ebi.ac.uk/gwas/rest/api/efoTraits/EFO_0008023"
                    },
                    "associationsByTraitSummary": {
                        "href": "https://www.ebi.ac.uk/gwas/rest/api/efoTraits/EFO_0008023/associations?projection=associationByEfoTrait"
                    },
                    "associations": {
                        "href": "https://www.ebi.ac.uk/gwas/rest/api/efoTraits/EFO_0008023/associations"
                    },
                    "studies": {
                        "href": "https://www.ebi.ac.uk/gwas/rest/api/efoTraits/EFO_0008023/studies"
                    }
                }
            },
            {
                "trait": "angiostatin measurement",
                "uri": "http://www.ebi.ac.uk/efo/EFO_0008024",
                "shortForm": "EFO_0008024",
                "_links": {
                    "self": {
                        "href": "https://www.ebi.ac.uk/gwas/rest/api/efoTraits/EFO_0008024"
                    },
                    "efoTrait": {
                        "href": "https://www.ebi.ac.uk/gwas/rest/api/efoTraits/EFO_0008024"
                    },
                    "associationsByTraitSummary": {
                        "href": "https://www.ebi.ac.uk/gwas/rest/api/efoTraits/EFO_0008024/associations?projection=associationByEfoTrait"
                    },
                    "associations": {
                        "href": "https://www.ebi.ac.uk/gwas/rest/api/efoTraits/EFO_0008024/associations"
                    },
                    "studies": {
                        "href": "https://www.ebi.ac.uk/gwas/rest/api/efoTraits/EFO_0008024/studies"
                    }
                }
            },
            {
                "trait": "angiotensinogen measurement",
                "uri": "http://www.ebi.ac.uk/efo/EFO_0008025",
                "shortForm": "EFO_0008025",
                "_links": {
                    "self": {
                        "href": "https://www.ebi.ac.uk/gwas/rest/api/efoTraits/EFO_0008025"
                    },
                    "efoTrait": {
                        "href": "https://www.ebi.ac.uk/gwas/rest/api/efoTraits/EFO_0008025"
                    },
                    "associationsByTraitSummary": {
                        "href": "https://www.ebi.ac.uk/gwas/rest/api/efoTraits/EFO_0008025/associations?projection=associationByEfoTrait"
                    },
                    "associations": {
                        "href": "https://www.ebi.ac.uk/gwas/rest/api/efoTraits/EFO_0008025/associations"
                    },
                    "studies": {
                        "href": "https://www.ebi.ac.uk/gwas/rest/api/efoTraits/EFO_0008025/studies"
                    }
                }
            },
            {
                "trait": "annexin A1 measurement",
                "uri": "http://www.ebi.ac.uk/efo/EFO_0008026",
                "shortForm": "EFO_0008026",
                "_links": {
                    "self": {
                        "href": "https://www.ebi.ac.uk/gwas/rest/api/efoTraits/EFO_0008026"
                    },
                    "efoTrait": {
                        "href": "https://www.ebi.ac.uk/gwas/rest/api/efoTraits/EFO_0008026"
                    },
                    "associationsByTraitSummary": {
                        "href": "https://www.ebi.ac.uk/gwas/rest/api/efoTraits/EFO_0008026/associations?projection=associationByEfoTrait"
                    },
                    "associations": {
                        "href": "https://www.ebi.ac.uk/gwas/rest/api/efoTraits/EFO_0008026/associations"
                    },
                    "studies": {
                        "href": "https://www.ebi.ac.uk/gwas/rest/api/efoTraits/EFO_0008026/studies"
                    }
                }
            },
            {
                "trait": "annexin A2 measurement",
                "uri": "http://www.ebi.ac.uk/efo/EFO_0008027",
                "shortForm": "EFO_0008027",
                "_links": {
                    "self": {
                        "href": "https://www.ebi.ac.uk/gwas/rest/api/efoTraits/EFO_0008027"
                    },
                    "efoTrait": {
                        "href": "https://www.ebi.ac.uk/gwas/rest/api/efoTraits/EFO_0008027"
                    },
                    "associationsByTraitSummary": {
                        "href": "https://www.ebi.ac.uk/gwas/rest/api/efoTraits/EFO_0008027/associations?projection=associationByEfoTrait"
                    },
                    "associations": {
                        "href": "https://www.ebi.ac.uk/gwas/rest/api/efoTraits/EFO_0008027/associations"
                    },
                    "studies": {
                        "href": "https://www.ebi.ac.uk/gwas/rest/api/efoTraits/EFO_0008027/studies"
                    }
                }
            },
            {
                "trait": "apolipoprotein E isoform E2 measurement",
                "uri": "http://www.ebi.ac.uk/efo/EFO_0008028",
                "shortForm": "EFO_0008028",
                "_links": {
                    "self": {
                        "href": "https://www.ebi.ac.uk/gwas/rest/api/efoTraits/EFO_0008028"
                    },
                    "efoTrait": {
                        "href": "https://www.ebi.ac.uk/gwas/rest/api/efoTraits/EFO_0008028"
                    },
                    "associationsByTraitSummary": {
                        "href": "https://www.ebi.ac.uk/gwas/rest/api/efoTraits/EFO_0008028/associations?projection=associationByEfoTrait"
                    },
                    "associations": {
                        "href": "https://www.ebi.ac.uk/gwas/rest/api/efoTraits/EFO_0008028/associations"
                    },
                    "studies": {
                        "href": "https://www.ebi.ac.uk/gwas/rest/api/efoTraits/EFO_0008028/studies"
                    }
                }
            },
            {
                "trait": "apolipoprotein E measurement",
                "uri": "http://www.ebi.ac.uk/efo/EFO_0008029",
                "shortForm": "EFO_0008029",
                "_links": {
                    "self": {
                        "href": "https://www.ebi.ac.uk/gwas/rest/api/efoTraits/EFO_0008029"
                    },
                    "efoTrait": {
                        "href": "https://www.ebi.ac.uk/gwas/rest/api/efoTraits/EFO_0008029"
                    },
                    "associationsByTraitSummary": {
                        "href": "https://www.ebi.ac.uk/gwas/rest/api/efoTraits/EFO_0008029/associations?projection=associationByEfoTrait"
                    },
                    "associations": {
                        "href": "https://www.ebi.ac.uk/gwas/rest/api/efoTraits/EFO_0008029/associations"
                    },
                    "studies": {
                        "href": "https://www.ebi.ac.uk/gwas/rest/api/efoTraits/EFO_0008029/studies"
                    }
                }
            },
            {
                "trait": "arylsulfatase B measurement",
                "uri": "http://www.ebi.ac.uk/efo/EFO_0008030",
                "shortForm": "EFO_0008030",
                "_links": {
                    "self": {
                        "href": "https://www.ebi.ac.uk/gwas/rest/api/efoTraits/EFO_0008030"
                    },
                    "efoTrait": {
                        "href": "https://www.ebi.ac.uk/gwas/rest/api/efoTraits/EFO_0008030"
                    },
                    "associationsByTraitSummary": {
                        "href": "https://www.ebi.ac.uk/gwas/rest/api/efoTraits/EFO_0008030/associations?projection=associationByEfoTrait"
                    },
                    "associations": {
                        "href": "https://www.ebi.ac.uk/gwas/rest/api/efoTraits/EFO_0008030/associations"
                    },
                    "studies": {
                        "href": "https://www.ebi.ac.uk/gwas/rest/api/efoTraits/EFO_0008030/studies"
                    }
                }
            },
            {
                "trait": "aspartate aminotransferase, cytoplasmic measurement",
                "uri": "http://www.ebi.ac.uk/efo/EFO_0008031",
                "shortForm": "EFO_0008031",
                "_links": {
                    "self": {
                        "href": "https://www.ebi.ac.uk/gwas/rest/api/efoTraits/EFO_0008031"
                    },
                    "efoTrait": {
                        "href": "https://www.ebi.ac.uk/gwas/rest/api/efoTraits/EFO_0008031"
                    },
                    "associationsByTraitSummary": {
                        "href": "https://www.ebi.ac.uk/gwas/rest/api/efoTraits/EFO_0008031/associations?projection=associationByEfoTrait"
                    },
                    "associations": {
                        "href": "https://www.ebi.ac.uk/gwas/rest/api/efoTraits/EFO_0008031/associations"
                    },
                    "studies": {
                        "href": "https://www.ebi.ac.uk/gwas/rest/api/efoTraits/EFO_0008031/studies"
                    }
                }
            },
            {
                "trait": "basal cell adhesion molecule measurement",
                "uri": "http://www.ebi.ac.uk/efo/EFO_0008032",
                "shortForm": "EFO_0008032",
                "_links": {
                    "self": {
                        "href": "https://www.ebi.ac.uk/gwas/rest/api/efoTraits/EFO_0008032"
                    },
                    "efoTrait": {
                        "href": "https://www.ebi.ac.uk/gwas/rest/api/efoTraits/EFO_0008032"
                    },
                    "associationsByTraitSummary": {
                        "href": "https://www.ebi.ac.uk/gwas/rest/api/efoTraits/EFO_0008032/associations?projection=associationByEfoTrait"
                    },
                    "associations": {
                        "href": "https://www.ebi.ac.uk/gwas/rest/api/efoTraits/EFO_0008032/associations"
                    },
                    "studies": {
                        "href": "https://www.ebi.ac.uk/gwas/rest/api/efoTraits/EFO_0008032/studies"
                    }
                }
            },
            {
                "trait": "benign prostatic hyperplasia",
                "uri": "http://www.ebi.ac.uk/efo/EFO_0000284",
                "shortForm": "EFO_0000284",
                "_links": {
                    "self": {
                        "href": "https://www.ebi.ac.uk/gwas/rest/api/efoTraits/EFO_0000284"
                    },
                    "efoTrait": {
                        "href": "https://www.ebi.ac.uk/gwas/rest/api/efoTraits/EFO_0000284"
                    },
                    "associationsByTraitSummary": {
                        "href": "https://www.ebi.ac.uk/gwas/rest/api/efoTraits/EFO_0000284/associations?projection=associationByEfoTrait"
                    },
                    "associations": {
                        "href": "https://www.ebi.ac.uk/gwas/rest/api/efoTraits/EFO_0000284/associations"
                    },
                    "studies": {
                        "href": "https://www.ebi.ac.uk/gwas/rest/api/efoTraits/EFO_0000284/studies"
                    }
                }
            },
            {
                "trait": "beta-Ala-His dipeptidase measurement",
                "uri": "http://www.ebi.ac.uk/efo/EFO_0008033",
                "shortForm": "EFO_0008033",
                "_links": {
                    "self": {
                        "href": "https://www.ebi.ac.uk/gwas/rest/api/efoTraits/EFO_0008033"
                    },
                    "efoTrait": {
                        "href": "https://www.ebi.ac.uk/gwas/rest/api/efoTraits/EFO_0008033"
                    },
                    "associationsByTraitSummary": {
                        "href": "https://www.ebi.ac.uk/gwas/rest/api/efoTraits/EFO_0008033/associations?projection=associationByEfoTrait"
                    },
                    "associations": {
                        "href": "https://www.ebi.ac.uk/gwas/rest/api/efoTraits/EFO_0008033/associations"
                    },
                    "studies": {
                        "href": "https://www.ebi.ac.uk/gwas/rest/api/efoTraits/EFO_0008033/studies"
                    }
                }
            },
            {
                "trait": "beta-endorphin measurement",
                "uri": "http://www.ebi.ac.uk/efo/EFO_0008034",
                "shortForm": "EFO_0008034",
                "_links": {
                    "self": {
                        "href": "https://www.ebi.ac.uk/gwas/rest/api/efoTraits/EFO_0008034"
                    },
                    "efoTrait": {
                        "href": "https://www.ebi.ac.uk/gwas/rest/api/efoTraits/EFO_0008034"
                    },
                    "associationsByTraitSummary": {
                        "href": "https://www.ebi.ac.uk/gwas/rest/api/efoTraits/EFO_0008034/associations?projection=associationByEfoTrait"
                    },
                    "associations": {
                        "href": "https://www.ebi.ac.uk/gwas/rest/api/efoTraits/EFO_0008034/associations"
                    },
                    "studies": {
                        "href": "https://www.ebi.ac.uk/gwas/rest/api/efoTraits/EFO_0008034/studies"
                    }
                }
            }
        ]
    },
    "_links": {
        "first": {
            "href": "https://www.ebi.ac.uk/gwas/rest/api/efoTraits?page=0&size=20"
        },
        "prev": {
            "href": "https://www.ebi.ac.uk/gwas/rest/api/efoTraits?page=83&size=20"
        },
        "self": {
            "href": "https://www.ebi.ac.uk/gwas/rest/api/efoTraits"
        },
        "next": {
            "href": "https://www.ebi.ac.uk/gwas/rest/api/efoTraits?page=85&size=20"
        },
        "last": {
            "href": "https://www.ebi.ac.uk/gwas/rest/api/efoTraits?page=122&size=20"
        },
        "profile": {
            "href": "https://www.ebi.ac.uk/gwas/rest/api/profile/efoTraits"
        },
        "search": {
            "href": "https://www.ebi.ac.uk/gwas/rest/api/efoTraits/search"
        }
    },
    "page": {
        "size": 20,
        "totalElements": 2454,
        "totalPages": 123,
        "number": 84
    }
}
