{
    "_embedded": {
        "efoTraits": [
            {
                "trait": "corneal astigmatism",
                "uri": "http://www.ebi.ac.uk/efo/EFO_1002040",
                "shortForm": "EFO_1002040",
                "_links": {
                    "self": {
                        "href": "https://www.ebi.ac.uk/gwas/rest/api/efoTraits/EFO_1002040"
                    },
                    "efoTrait": {
                        "href": "https://www.ebi.ac.uk/gwas/rest/api/efoTraits/EFO_1002040"
                    },
                    "associationsByTraitSummary": {
                        "href": "https://www.ebi.ac.uk/gwas/rest/api/efoTraits/EFO_1002040/associations?projection=associationByEfoTrait"
                    },
                    "studies": {
                        "href": "https://www.ebi.ac.uk/gwas/rest/api/efoTraits/EFO_1002040/studies"
                    },
                    "associations": {
                        "href": "https://www.ebi.ac.uk/gwas/rest/api/efoTraits/EFO_1002040/associations"
                    }
                }
            },
            {
                "trait": "response to taxane",
                "uri": "http://www.ebi.ac.uk/efo/EFO_0008580",
                "shortForm": "EFO_0008580",
                "_links": {
                    "self": {
                        "href": "https://www.ebi.ac.uk/gwas/rest/api/efoTraits/EFO_0008580"
                    },
                    "efoTrait": {
                        "href": "https://www.ebi.ac.uk/gwas/rest/api/efoTraits/EFO_0008580"
                    },
                    "associationsByTraitSummary": {
                        "href": "https://www.ebi.ac.uk/gwas/rest/api/efoTraits/EFO_0008580/associations?projection=associationByEfoTrait"
                    },
                    "studies": {
                        "href": "https://www.ebi.ac.uk/gwas/rest/api/efoTraits/EFO_0008580/studies"
                    },
                    "associations": {
                        "href": "https://www.ebi.ac.uk/gwas/rest/api/efoTraits/EFO_0008580/associations"
                    }
                }
            },
            {
                "trait": "thrombin activatable fibrinolysis inhibitor activation peptide measurement",
                "uri": "http://www.ebi.ac.uk/efo/EFO_0008582",
                "shortForm": "EFO_0008582",
                "_links": {
                    "self": {
                        "href": "https://www.ebi.ac.uk/gwas/rest/api/efoTraits/EFO_0008582"
                    },
                    "efoTrait": {
                        "href": "https://www.ebi.ac.uk/gwas/rest/api/efoTraits/EFO_0008582"
                    },
                    "associationsByTraitSummary": {
                        "href": "https://www.ebi.ac.uk/gwas/rest/api/efoTraits/EFO_0008582/associations?projection=associationByEfoTrait"
                    },
                    "studies": {
                        "href": "https://www.ebi.ac.uk/gwas/rest/api/efoTraits/EFO_0008582/studies"
                    },
                    "associations": {
                        "href": "https://www.ebi.ac.uk/gwas/rest/api/efoTraits/EFO_0008582/associations"
                    }
                }
            },
            {
                "trait": "risk-taking behaviour",
                "uri": "http://www.ebi.ac.uk/efo/EFO_0008579",
                "shortForm": "EFO_0008579",
                "_links": {
                    "self": {
                        "href": "https://www.ebi.ac.uk/gwas/rest/api/efoTraits/EFO_0008579"
                    },
                    "efoTrait": {
                        "href": "https://www.ebi.ac.uk/gwas/rest/api/efoTraits/EFO_0008579"
                    },
                    "associationsByTraitSummary": {
                        "href": "https://www.ebi.ac.uk/gwas/rest/api/efoTraits/EFO_0008579/associations?projection=associationByEfoTrait"
                    },
                    "studies": {
                        "href": "https://www.ebi.ac.uk/gwas/rest/api/efoTraits/EFO_0008579/studies"
                    },
                    "associations": {
                        "href": "https://www.ebi.ac.uk/gwas/rest/api/efoTraits/EFO_0008579/associations"
                    }
                }
            },
            {
                "trait": "Plantar Fasciitis",
                "uri": "http://www.ebi.ac.uk/efo/EFO_1001909",
                "shortForm": "EFO_1001909",
                "_links": {
                    "self": {
                        "href": "https://www.ebi.ac.uk/gwas/rest/api/efoTraits/EFO_1001909"
                    },
                    "efoTrait": {
                        "href": "https://www.ebi.ac.uk/gwas/rest/api/efoTraits/EFO_1001909"
                    },
                    "associationsByTraitSummary": {
                        "href": "https://www.ebi.ac.uk/gwas/rest/api/efoTraits/EFO_1001909/associations?projection=associationByEfoTrait"
                    },
                    "studies": {
                        "href": "https://www.ebi.ac.uk/gwas/rest/api/efoTraits/EFO_1001909/studies"
                    },
                    "associations": {
                        "href": "https://www.ebi.ac.uk/gwas/rest/api/efoTraits/EFO_1001909/associations"
                    }
                }
            },
            {
                "trait": "Plantar Fibromatosis",
                "uri": "http://www.ebi.ac.uk/efo/EFO_1000481",
                "shortForm": "EFO_1000481",
                "_links": {
                    "self": {
                        "href": "https://www.ebi.ac.uk/gwas/rest/api/efoTraits/EFO_1000481"
                    },
                    "efoTrait": {
                        "href": "https://www.ebi.ac.uk/gwas/rest/api/efoTraits/EFO_1000481"
                    },
                    "associationsByTraitSummary": {
                        "href": "https://www.ebi.ac.uk/gwas/rest/api/efoTraits/EFO_1000481/associations?projection=associationByEfoTrait"
                    },
                    "studies": {
                        "href": "https://www.ebi.ac.uk/gwas/rest/api/efoTraits/EFO_1000481/studies"
                    },
                    "associations": {
                        "href": "https://www.ebi.ac.uk/gwas/rest/api/efoTraits/EFO_1000481/associations"
                    }
                }
            },
            {
                "trait": "hyperuricemia",
                "uri": "http://www.ebi.ac.uk/efo/EFO_0009104",
                "shortForm": "EFO_0009104",
                "_links": {
                    "self": {
                        "href": "https://www.ebi.ac.uk/gwas/rest/api/efoTraits/EFO_0009104"
                    },
                    "efoTrait": {
                        "href": "https://www.ebi.ac.uk/gwas/rest/api/efoTraits/EFO_0009104"
                    },
                    "associationsByTraitSummary": {
                        "href": "https://www.ebi.ac.uk/gwas/rest/api/efoTraits/EFO_0009104/associations?projection=associationByEfoTrait"
                    },
                    "studies": {
                        "href": "https://www.ebi.ac.uk/gwas/rest/api/efoTraits/EFO_0009104/studies"
                    },
                    "associations": {
                        "href": "https://www.ebi.ac.uk/gwas/rest/api/efoTraits/EFO_0009104/associations"
                    }
                }
            },
            {
                "trait": "non-typhoidal Salmonella bacteremia",
                "uri": "http://www.ebi.ac.uk/efo/EFO_0009087",
                "shortForm": "EFO_0009087",
                "_links": {
                    "self": {
                        "href": "https://www.ebi.ac.uk/gwas/rest/api/efoTraits/EFO_0009087"
                    },
                    "efoTrait": {
                        "href": "https://www.ebi.ac.uk/gwas/rest/api/efoTraits/EFO_0009087"
                    },
                    "associationsByTraitSummary": {
                        "href": "https://www.ebi.ac.uk/gwas/rest/api/efoTraits/EFO_0009087/associations?projection=associationByEfoTrait"
                    },
                    "studies": {
                        "href": "https://www.ebi.ac.uk/gwas/rest/api/efoTraits/EFO_0009087/studies"
                    },
                    "associations": {
                        "href": "https://www.ebi.ac.uk/gwas/rest/api/efoTraits/EFO_0009087/associations"
                    }
                }
            },
            {
                "trait": "high altitude adaptation",
                "uri": "http://www.ebi.ac.uk/efo/EFO_0009105",
                "shortForm": "EFO_0009105",
                "_links": {
                    "self": {
                        "href": "https://www.ebi.ac.uk/gwas/rest/api/efoTraits/EFO_0009105"
                    },
                    "efoTrait": {
                        "href": "https://www.ebi.ac.uk/gwas/rest/api/efoTraits/EFO_0009105"
                    },
                    "associationsByTraitSummary": {
                        "href": "https://www.ebi.ac.uk/gwas/rest/api/efoTraits/EFO_0009105/associations?projection=associationByEfoTrait"
                    },
                    "studies": {
                        "href": "https://www.ebi.ac.uk/gwas/rest/api/efoTraits/EFO_0009105/studies"
                    },
                    "associations": {
                        "href": "https://www.ebi.ac.uk/gwas/rest/api/efoTraits/EFO_0009105/associations"
                    }
                }
            },
            {
                "trait": "clostridium difficile infection",
                "uri": "http://www.ebi.ac.uk/efo/EFO_0009130",
                "shortForm": "EFO_0009130",
                "_links": {
                    "self": {
                        "href": "https://www.ebi.ac.uk/gwas/rest/api/efoTraits/EFO_0009130"
                    },
                    "efoTrait": {
                        "href": "https://www.ebi.ac.uk/gwas/rest/api/efoTraits/EFO_0009130"
                    },
                    "associationsByTraitSummary": {
                        "href": "https://www.ebi.ac.uk/gwas/rest/api/efoTraits/EFO_0009130/associations?projection=associationByEfoTrait"
                    },
                    "studies": {
                        "href": "https://www.ebi.ac.uk/gwas/rest/api/efoTraits/EFO_0009130/studies"
                    },
                    "associations": {
                        "href": "https://www.ebi.ac.uk/gwas/rest/api/efoTraits/EFO_0009130/associations"
                    }
                }
            },
            {
                "trait": "response to polyunsaturated fatty acid supplementation",
                "uri": "http://www.ebi.ac.uk/efo/EFO_0009131",
                "shortForm": "EFO_0009131",
                "_links": {
                    "self": {
                        "href": "https://www.ebi.ac.uk/gwas/rest/api/efoTraits/EFO_0009131"
                    },
                    "efoTrait": {
                        "href": "https://www.ebi.ac.uk/gwas/rest/api/efoTraits/EFO_0009131"
                    },
                    "associationsByTraitSummary": {
                        "href": "https://www.ebi.ac.uk/gwas/rest/api/efoTraits/EFO_0009131/associations?projection=associationByEfoTrait"
                    },
                    "studies": {
                        "href": "https://www.ebi.ac.uk/gwas/rest/api/efoTraits/EFO_0009131/studies"
                    },
                    "associations": {
                        "href": "https://www.ebi.ac.uk/gwas/rest/api/efoTraits/EFO_0009131/associations"
                    }
                }
            },
            {
                "trait": "cholesterol efflux capacity measurement",
                "uri": "http://www.ebi.ac.uk/efo/EFO_0009132",
                "shortForm": "EFO_0009132",
                "_links": {
                    "self": {
                        "href": "https://www.ebi.ac.uk/gwas/rest/api/efoTraits/EFO_0009132"
                    },
                    "efoTrait": {
                        "href": "https://www.ebi.ac.uk/gwas/rest/api/efoTraits/EFO_0009132"
                    },
                    "associationsByTraitSummary": {
                        "href": "https://www.ebi.ac.uk/gwas/rest/api/efoTraits/EFO_0009132/associations?projection=associationByEfoTrait"
                    },
                    "studies": {
                        "href": "https://www.ebi.ac.uk/gwas/rest/api/efoTraits/EFO_0009132/studies"
                    },
                    "associations": {
                        "href": "https://www.ebi.ac.uk/gwas/rest/api/efoTraits/EFO_0009132/associations"
                    }
                }
            },
            {
                "trait": "cholesteryl ester transfer protein measurement",
                "uri": "http://www.ebi.ac.uk/efo/EFO_0009133",
                "shortForm": "EFO_0009133",
                "_links": {
                    "self": {
                        "href": "https://www.ebi.ac.uk/gwas/rest/api/efoTraits/EFO_0009133"
                    },
                    "efoTrait": {
                        "href": "https://www.ebi.ac.uk/gwas/rest/api/efoTraits/EFO_0009133"
                    },
                    "associationsByTraitSummary": {
                        "href": "https://www.ebi.ac.uk/gwas/rest/api/efoTraits/EFO_0009133/associations?projection=associationByEfoTrait"
                    },
                    "studies": {
                        "href": "https://www.ebi.ac.uk/gwas/rest/api/efoTraits/EFO_0009133/studies"
                    },
                    "associations": {
                        "href": "https://www.ebi.ac.uk/gwas/rest/api/efoTraits/EFO_0009133/associations"
                    }
                }
            },
            {
                "trait": "trimethyllysine measurement",
                "uri": "http://www.ebi.ac.uk/efo/EFO_0009134",
                "shortForm": "EFO_0009134",
                "_links": {
                    "self": {
                        "href": "https://www.ebi.ac.uk/gwas/rest/api/efoTraits/EFO_0009134"
                    },
                    "efoTrait": {
                        "href": "https://www.ebi.ac.uk/gwas/rest/api/efoTraits/EFO_0009134"
                    },
                    "associationsByTraitSummary": {
                        "href": "https://www.ebi.ac.uk/gwas/rest/api/efoTraits/EFO_0009134/associations?projection=associationByEfoTrait"
                    },
                    "studies": {
                        "href": "https://www.ebi.ac.uk/gwas/rest/api/efoTraits/EFO_0009134/studies"
                    },
                    "associations": {
                        "href": "https://www.ebi.ac.uk/gwas/rest/api/efoTraits/EFO_0009134/associations"
                    }
                }
            },
            {
                "trait": "heart rate response to exercise",
                "uri": "http://www.ebi.ac.uk/efo/EFO_0009184",
                "shortForm": "EFO_0009184",
                "_links": {
                    "self": {
                        "href": "https://www.ebi.ac.uk/gwas/rest/api/efoTraits/EFO_0009184"
                    },
                    "efoTrait": {
                        "href": "https://www.ebi.ac.uk/gwas/rest/api/efoTraits/EFO_0009184"
                    },
                    "associationsByTraitSummary": {
                        "href": "https://www.ebi.ac.uk/gwas/rest/api/efoTraits/EFO_0009184/associations?projection=associationByEfoTrait"
                    },
                    "studies": {
                        "href": "https://www.ebi.ac.uk/gwas/rest/api/efoTraits/EFO_0009184/studies"
                    },
                    "associations": {
                        "href": "https://www.ebi.ac.uk/gwas/rest/api/efoTraits/EFO_0009184/associations"
                    }
                }
            },
            {
                "trait": "heart rate response to recovery post exercise",
                "uri": "http://www.ebi.ac.uk/efo/EFO_0009185",
                "shortForm": "EFO_0009185",
                "_links": {
                    "self": {
                        "href": "https://www.ebi.ac.uk/gwas/rest/api/efoTraits/EFO_0009185"
                    },
                    "efoTrait": {
                        "href": "https://www.ebi.ac.uk/gwas/rest/api/efoTraits/EFO_0009185"
                    },
                    "associationsByTraitSummary": {
                        "href": "https://www.ebi.ac.uk/gwas/rest/api/efoTraits/EFO_0009185/associations?projection=associationByEfoTrait"
                    },
                    "studies": {
                        "href": "https://www.ebi.ac.uk/gwas/rest/api/efoTraits/EFO_0009185/studies"
                    },
                    "associations": {
                        "href": "https://www.ebi.ac.uk/gwas/rest/api/efoTraits/EFO_0009185/associations"
                    }
                }
            },
            {
                "trait": "Abruptio Placentae",
                "uri": "http://www.ebi.ac.uk/efo/EFO_1001754",
                "shortForm": "EFO_1001754",
                "_links": {
                    "self": {
                        "href": "https://www.ebi.ac.uk/gwas/rest/api/efoTraits/EFO_1001754"
                    },
                    "efoTrait": {
                        "href": "https://www.ebi.ac.uk/gwas/rest/api/efoTraits/EFO_1001754"
                    },
                    "associationsByTraitSummary": {
                        "href": "https://www.ebi.ac.uk/gwas/rest/api/efoTraits/EFO_1001754/associations?projection=associationByEfoTrait"
                    },
                    "studies": {
                        "href": "https://www.ebi.ac.uk/gwas/rest/api/efoTraits/EFO_1001754/studies"
                    },
                    "associations": {
                        "href": "https://www.ebi.ac.uk/gwas/rest/api/efoTraits/EFO_1001754/associations"
                    }
                }
            },
            {
                "trait": "interventricular septum thickness",
                "uri": "http://www.ebi.ac.uk/efo/EFO_0009287",
                "shortForm": "EFO_0009287",
                "_links": {
                    "self": {
                        "href": "https://www.ebi.ac.uk/gwas/rest/api/efoTraits/EFO_0009287"
                    },
                    "efoTrait": {
                        "href": "https://www.ebi.ac.uk/gwas/rest/api/efoTraits/EFO_0009287"
                    },
                    "associationsByTraitSummary": {
                        "href": "https://www.ebi.ac.uk/gwas/rest/api/efoTraits/EFO_0009287/associations?projection=associationByEfoTrait"
                    },
                    "studies": {
                        "href": "https://www.ebi.ac.uk/gwas/rest/api/efoTraits/EFO_0009287/studies"
                    },
                    "associations": {
                        "href": "https://www.ebi.ac.uk/gwas/rest/api/efoTraits/EFO_0009287/associations"
                    }
                }
            },
            {
                "trait": "E/A ratio",
                "uri": "http://www.ebi.ac.uk/efo/EFO_0009291",
                "shortForm": "EFO_0009291",
                "_links": {
                    "self": {
                        "href": "https://www.ebi.ac.uk/gwas/rest/api/efoTraits/EFO_0009291"
                    },
                    "efoTrait": {
                        "href": "https://www.ebi.ac.uk/gwas/rest/api/efoTraits/EFO_0009291"
                    },
                    "associationsByTraitSummary": {
                        "href": "https://www.ebi.ac.uk/gwas/rest/api/efoTraits/EFO_0009291/associations?projection=associationByEfoTrait"
                    },
                    "studies": {
                        "href": "https://www.ebi.ac.uk/gwas/rest/api/efoTraits/EFO_0009291/studies"
                    },
                    "associations": {
                        "href": "https://www.ebi.ac.uk/gwas/rest/api/efoTraits/EFO_0009291/associations"
                    }
                }
            },
            {
                "trait": "neurobehavioral manifestations",
                "uri": "http://www.ebi.ac.uk/efo/EFO_0004364",
                "shortForm": "EFO_0004364",
                "_links": {
                    "self": {
                        "href": "https://www.ebi.ac.uk/gwas/rest/api/efoTraits/EFO_0004364"
                    },
                    "efoTrait": {
                        "href": "https://www.ebi.ac.uk/gwas/rest/api/efoTraits/EFO_0004364"
                    },
                    "associationsByTraitSummary": {
                        "href": "https://www.ebi.ac.uk/gwas/rest/api/efoTraits/EFO_0004364/associations?projection=associationByEfoTrait"
                    },
                    "studies": {
                        "href": "https://www.ebi.ac.uk/gwas/rest/api/efoTraits/EFO_0004364/studies"
                    },
                    "associations": {
                        "href": "https://www.ebi.ac.uk/gwas/rest/api/efoTraits/EFO_0004364/associations"
                    }
                }
            }
        ]
    },
    "_links": {
        "first": {
            "href": "https://www.ebi.ac.uk/gwas/rest/api/efoTraits?page=0&size=20"
        },
        "prev": {
            "href": "https://www.ebi.ac.uk/gwas/rest/api/efoTraits?page=107&size=20"
        },
        "self": {
            "href": "https://www.ebi.ac.uk/gwas/rest/api/efoTraits"
        },
        "next": {
            "href": "https://www.ebi.ac.uk/gwas/rest/api/efoTraits?page=109&size=20"
        },
        "last": {
            "href": "https://www.ebi.ac.uk/gwas/rest/api/efoTraits?page=122&size=20"
        },
        "profile": {
            "href": "https://www.ebi.ac.uk/gwas/rest/api/profile/efoTraits"
        },
        "search": {
            "href": "https://www.ebi.ac.uk/gwas/rest/api/efoTraits/search"
        }
    },
    "page": {
        "size": 20,
        "totalElements": 2454,
        "totalPages": 123,
        "number": 108
    }
}
