Bind GWAS Catalog objects — bind • gwasrapidd
…
#> Slot "variants":
#> # A tibble: 7 x 7
#>   variant_id merged functional_class chromosome_name chromosome_posi…
#>   <chr>       <int> <chr>            <chr>                      <int>
#> 1 rs1469924…      0 regulatory_regi… 8                       36984538
#> 2 rs56261590      0 intron_variant   4                       73189781
#> 3 rs4725504       0 intergenic_vari… 7                      153608338
#> 4 rs56261590      0 intron_variant   4                       73189781
#> 5 rs4725504       0 intergenic_vari… 7                      153608338
#> 6 rs11099757      0 intron_variant   4                      150143216
#> 7 rs16871509      0 intergenic_vari… 5                       71726395
#> # … with 2 more variables: chromosome_region <chr>, last_update_date <dttm>
#> 
#> Slot "genomic_contexts":
#> # A tibble: 44 x 11
#>    variant_id gene_name chromosome_name chromosome_posi… distance
#>    <chr>      <chr>     <chr>                      <int>    <int>
#>  1 rs1469924… LOC10537… 8                       36984538    81555
#>  2 rs1469924… KCNU1     8                       36984538    48413
#>  3 rs1469924… LOC10537… 8                       36984538     2533
#>  4 rs1469924… TPT1P8    8                       36984538    95231
#>  5 rs1469924… RPL26P25  8                       36984538     3392
#>  6 rs1469924… KCNU1     8                       36984538    48413
#>  7 rs1469924… AC090453… 8                       36984538     3439
#>  8 rs1469924… TPT1P8    8                       36984538    95008
#>  9 rs1469924… AC092818… 8                       36984538    82903
#> 10 rs1469924… LOC10537… 8                       36984538    59331
#> # … with 34 more rows, and 6 more variables: is_closest_gene <lgl>,
#> #   is_intergenic <lgl>, is_upstream <lgl>, is_downstream <lgl>, source <chr>,
#> #   mapping_method <chr>
#> 
#> Slot "ensembl_ids":
#> # A tibble: 23 x 3
#>    variant_id  gene_name  ensembl_id     
#>    <chr>       <chr>      <chr>          
#>  1 rs146992477 KCNU1      ENSG00000215262
#>  2 rs146992477 TPT1P8     ENSG00000219491
#>  3 rs146992477 AC090453.1 ENSG00000243503
#>  4 rs146992477 AC092818.1 ENSG00000254038
#>  5 rs56261590  ANKRD17    ENSG00000132466
#>  6 rs56261590  HMGA1P2    ENSG00000248641
#>  7 rs56261590  AC053527.1 ENSG00000250220
#>  8 rs56261590  RF00334    ENSG00000221093
#>  9 rs4725504   DPP6       ENSG00000130226
#> 10 rs4725504   PAXBP1P1   ENSG00000233489
#> # … with 13 more rows
#> 
#> Slot "entrez_ids":
#> # A tibble: 24 x 3
#>    variant_id  gene_name    entrez_id
#>    <chr>       <chr>        <chr>    
#>  1 rs146992477 LOC105379377 105379377
#>  2 rs146992477 KCNU1        157855   
#>  3 rs146992477 LOC105379376 105379376
#>  4 rs146992477 TPT1P8       59347    
#>  5 rs146992477 RPL26P25     100270966
#>  6 rs146992477 LOC105379375 105379375
#>  7 rs56261590  ANKRD17      26057    
#>  8 rs56261590  HMGA1P2      171559   
#>  9 rs56261590  LOC102724832 102724832
#> 10 rs4725504   DPP6         1804     
#> # … with 14 more rows
…
