Get GWAS Catalog variants — get_variants • gwasrapidd
…
#>  8 rs6452524       0 intron_variant            NA                             NA
#>  9 rs200752        0 intron_variant            NA                             NA
#> 10 rs3798440       0 intron_variant            NA                             NA
#> 11 rs7735940       0 regulatory_region_variant NA                             NA
#> 12 rs9350602       0 intron_variant            6                        75850781
#> 13 rs10188442      0 intron_variant            2                       132431666
#> 14 rs12522034      0 intergenic_variant        5                        36425491
#> 15 rs13420028      0 intron_variant            NA                             NA
#> 16 rs2469997       0 intergenic_variant        8                       119341027
#> 17 rs6887846       0 intron_variant            5                        83140542
#> 18 rs6469823       1 intergenic_variant        8                       119341744
#> # … with 2 more variables: chromosome_region <chr>, last_update_date <dttm>
#> 
#> Slot "genomic_contexts":
#> # A tibble: 60 × 12
#>    variant_id gene_name chromosome_name chromosome_posi… distance is_mapped_gene
#>    <chr>      <chr>     <chr>                      <int>    <int> <lgl>         
#>  1 rs10785581 LOC10536… 12                      45537190    58636 FALSE         
#>  2 rs10785581 ANO6      12                      45537190    96786 FALSE         
#>  3 rs10785581 ANO6      12                      45537190    54910 TRUE          
#>  4 rs10785581 U6        12                      45537190    17400 TRUE          
#>  5 rs10785581 LOC10012… 12                      45537190    91755 FALSE         
#>  6 rs10785581 LOC10536… 12                      45537190        0 FALSE         
#>  7 rs200759   MACROD2   20                      15625776        0 FALSE         
#>  8 rs200759   LOC10798… 20                      15625776     1048 FALSE         
#>  9 rs200759   ENSAP1    20                      15625776     5991 FALSE         
#> 10 rs200759   ENSAP1    20                      15625776     5957 FALSE         
#> # … with 50 more rows, and 6 more variables: is_closest_gene <lgl>,
#> #   is_intergenic <lgl>, is_upstream <lgl>, is_downstream <lgl>, source <chr>,
#> #   mapping_method <chr>
#> 
#> Slot "ensembl_ids":
#> # A tibble: 34 × 3
#>    variant_id gene_name ensembl_id     
#>    <chr>      <chr>     <chr>          
#>  1 rs10785581 ANO6      ENSG00000177119
#>  2 rs10785581 U6        ENSG00000264557
#>  3 rs10785581 U6        ENSG00000265920
#>  4 rs10785581 U6        ENSG00000263869
#>  5 rs10785581 U6        ENSG00000265351
#>  6 rs10785581 U6        ENSG00000266660
#>  7 rs10785581 U6        ENSG00000265048
#>  8 rs10785581 U6        ENSG00000266435
#>  9 rs200759   MACROD2   ENSG00000172264
#> 10 rs200759   ENSAP1    ENSG00000224274
#> # … with 24 more rows
#> 
#> Slot "entrez_ids":
#> # A tibble: 32 × 3
#>    variant_id gene_name    entrez_id
#>    <chr>      <chr>        <chr>    
#>  1 rs10785581 LOC105369744 105369744
#>  2 rs10785581 ANO6         196527   
#>  3 rs10785581 LOC100128248 100128248
#>  4 rs10785581 LOC105369743 105369743
#>  5 rs200759   MACROD2      140733   
#>  6 rs200759   LOC107985394 107985394
#>  7 rs200759   ENSAP1       170511   
#>  8 rs1372662  ZFAT-AS1     594840   
#>  9 rs1372662  ZFAT         57623    
#> 10 rs9350602  MYO6         4646     
#> # … with 22 more rows
#> 

# Get variants by association identifier
get_variants(association_id = '25389945')
#> An object of class "variants"
#> Slot "variants":
#> # A tibble: 27 × 7
#>    variant_id merged functional_class          chromosome_name chromosome_posit…
#>    <chr>       <int> <chr>                     <chr>                       <int>
#>  1 rs9486815       0 intron_variant            6                       108126842
#>  2 rs4245535       0 intron_variant            NA                             NA
#>  3 rs17069173      0 intergenic_variant        NA                             NA
#>  4 rs9374021       0 intron_variant            NA                             NA
#>  5 rs9374007       0 intergenic_variant        NA                             NA
#>  6 rs9386694       0 intergenic_variant        NA                             NA
#>  7 rs9374002       0 non_coding_transcript_ex… NA                             NA
#>  8 rs218289        0 intron_variant            NA                             NA
#>  9 rs1064346       0 3_prime_UTR_variant       NA                             NA
#> 10 rs9374013       0 intron_variant            NA                             NA
#> # … with 17 more rows, and 2 more variables: chromosome_region <chr>,
#> #   last_update_date <dttm>
…
#> # A tibble: 8 × 7
#>   variant_id merged functional_class    chromosome_name chromosome_position
#>   <chr>       <int> <chr>               <chr>                         <int>
#> 1 rs2464195       0 missense_variant    12                        120997672
#> 2 rs17215231      0 5_prime_UTR_variant 6                          33272092
#> 3 rs10069690      0 intron_variant      5                           1279675
#> 4 rs2363956       0 missense_variant    19                         17283315
#> 5 rs4245739       0 3_prime_UTR_variant 1                         204549714
#> 6 rs10771399      0 intergenic_variant  12                         28002147
#> 7 rs3757318       0 intron_variant      6                         151592978
#> 8 rs78378222      0 3_prime_UTR_variant 17                          7668434
#> # … with 2 more variables: chromosome_region <chr>, last_update_date <dttm>
#> 
#> Slot "genomic_contexts":
#> # A tibble: 359 × 12
#>    variant_id gene_name chromosome_name chromosome_posi… distance is_mapped_gene
#>    <chr>      <chr>     <chr>                      <int>    <int> <lgl>         
#>  1 rs2464195  OASL2P    12                     120997672    56060 FALSE         
#>  2 rs2464195  CLIC1P1   12                     120997672    82549 FALSE         
#>  3 rs2464195  OASL      12                     120997672    21210 FALSE         
#>  4 rs2464195  XLOC_009… 12                     120997672    89598 FALSE         
#>  5 rs2464195  HNF1A     12                     120997672        0 TRUE          
#>  6 rs2464195  RPL12P33  12                     120997672    80436 FALSE         
#>  7 rs2464195  LOC10537… 12                     120997672    71187 FALSE         
#>  8 rs2464195  C12orf43  12                     120997672     2814 FALSE         
#>  9 rs2464195  RPL12P33  12                     120997672    80387 FALSE         
#> 10 rs2464195  C12orf43  12                     120997672     2814 FALSE         
#> # … with 349 more rows, and 6 more variables: is_closest_gene <lgl>,
#> #   is_intergenic <lgl>, is_upstream <lgl>, is_downstream <lgl>, source <chr>,
#> #   mapping_method <chr>
#> 
#> Slot "ensembl_ids":
#> # A tibble: 154 × 3
#>    variant_id gene_name ensembl_id     
#>    <chr>      <chr>     <chr>          
#>  1 rs2464195  OASL2P    ENSG00000283542
#>  2 rs2464195  CLIC1P1   ENSG00000231313
#>  3 rs2464195  OASL      ENSG00000135114
#>  4 rs2464195  HNF1A     ENSG00000135100
#>  5 rs2464195  RPL12P33  ENSG00000244585
#>  6 rs2464195  C12orf43  ENSG00000157895
#>  7 rs2464195  SPPL3     ENSG00000157837
#>  8 rs2464195  HNF1A-AS1 ENSG00000241388
#>  9 rs17215231 ZBTB22    ENSG00000236104
#> 10 rs17215231 ZBTB22    ENSG00000206280
#> # … with 144 more rows
#> 
#> Slot "entrez_ids":
#> # A tibble: 89 × 3
#>    variant_id gene_name    entrez_id
#>    <chr>      <chr>        <chr>    
#>  1 rs2464195  OASL2P       111216278
#>  2 rs2464195  CLIC1P1      390363   
#>  3 rs2464195  OASL         8638     
#>  4 rs2464195  XLOC_009911  105500240
#>  5 rs2464195  HNF1A        6927     
#>  6 rs2464195  RPL12P33     643550   
#>  7 rs2464195  LOC105378258 105378258
#>  8 rs2464195  C12orf43     64897    
#>  9 rs2464195  SPPL3        121665   
#> 10 rs2464195  HNF1A-AS1    283460   
#> # … with 79 more rows
…
