Get GWAS Catalog associations — get_associations • gwasrapidd
…
#> 1 25389945       3.00e-7 <NA>                           3              -7
#> # … with 12 more variables: multiple_snp_haplotype <lgl>,
#> #   snp_interaction <lgl>, snp_type <chr>, standard_error <dbl>, range <chr>,
#> #   or_per_copy_number <dbl>, beta_number <dbl>, beta_unit <chr>,
#> #   beta_direction <chr>, beta_description <chr>, last_mapping_date <dttm>,
#> #   last_update_date <dttm>
#> 
#> Slot "loci":
#> # A tibble: 1 x 4
#>   association_id locus_id haplotype_snp_count description     
#>   <chr>             <int>               <int> <chr>           
#> 1 25389945              1                  27 27-SNP haplotype
#> 
#> Slot "risk_alleles":
#> # A tibble: 27 x 7
#>    association_id locus_id variant_id risk_allele risk_frequency genome_wide
#>    <chr>             <int> <chr>      <chr>                <dbl> <lgl>      
#>  1 25389945              1 rs9486815  G                       NA FALSE      
#>  2 25389945              1 rs4245535  G                       NA FALSE      
#>  3 25389945              1 rs17069173 A                       NA FALSE      
#>  4 25389945              1 rs9374021  G                       NA FALSE      
#>  5 25389945              1 rs9374007  A                       NA FALSE      
#>  6 25389945              1 rs9386694  A                       NA FALSE      
#>  7 25389945              1 rs9374002  G                       NA FALSE      
#>  8 25389945              1 rs218289   A                       NA FALSE      
#>  9 25389945              1 rs1064346  A                       NA FALSE      
#> 10 25389945              1 rs9374013  G                       NA FALSE      
#> # … with 17 more rows, and 1 more variable: limited_list <lgl>
…
