Get GWAS Catalog studies — get_studies • gwasrapidd
…
#>   study_id     ancestry_id ancestral_group
#>   <chr>              <int> <chr>          
#> 1 GCST002305             1 European       
#> 2 GCST002305             2 European       
#> 3 GCST90029052           1 European       
#> 4 GCST010100             1 European       
#> 
#> Slot "countries_of_origin":
#> # A tibble: 1 × 5
#>   study_id   ancestry_id country_name major_area region
#>   <chr>            <int> <chr>        <chr>      <chr> 
#> 1 GCST010100           1 NA           NA         NA    
#> 
#> Slot "countries_of_recruitment":
#> # A tibble: 55 × 5
#>    study_id   ancestry_id country_name major_area       region               
#>    <chr>            <int> <chr>        <chr>            <chr>                
#>  1 GCST002305           1 U.S.         Northern America NA                   
#>  2 GCST002305           1 Greece       Europe           Southern Europe      
#>  3 GCST002305           1 Germany      Europe           Western Europe       
#>  4 GCST002305           1 U.K.         Europe           Northern Europe      
#>  5 GCST002305           1 Norway       Europe           Northern Europe      
#>  6 GCST002305           2 Finland      Europe           Northern Europe      
#>  7 GCST002305           2 U.S.         Northern America NA                   
#>  8 GCST002305           2 Australia    Oceania          Australia/New Zealand
#>  9 GCST002305           2 Germany      Europe           Western Europe       
#> 10 GCST002305           2 U.K.         Europe           Northern Europe      
#> # … with 45 more rows
#> # ℹ Use `print(n = ...)` to see more rows
…
