GWAS accession identifier mapping — identifier_mapping • gwasrapidd
…
# Map GWAS study identifiers to variant identifiers
study_to_variant(c('GCST001084', 'GCST001085'))

#> # A tibble: 28 x 2
#>    study_id   variant_id
#>    <chr>      <chr>     
#>  1 GCST001084 rs7697839 
#>  2 GCST001084 rs1165668 
#>  3 GCST001084 rs1165669 
#>  4 GCST001084 rs10218795
#>  5 GCST001084 rs1333048 
#>  6 GCST001084 rs1333049 
#>  7 GCST001084 rs6789378 
#>  8 GCST001084 rs12091564
#>  9 GCST001084 rs7673097 
#> 10 GCST001084 rs11924705
#> # … with 18 more rows
…
# Map EFO trait identifiers to study identifiers
trait_to_study(c('EFO_0005108', 'EFO_0005109'))

#> # A tibble: 2 x 2
#>   efo_id      study_id  
#>   <chr>       <chr>     
#> 1 EFO_0005108 GCST001762
#> 2 EFO_0005109 GCST001762

# Map EFO trait identifiers to association identifiers
trait_to_association(c('EFO_0005108', 'EFO_0005109'))

#> # A tibble: 38 x 2
#>    efo_id      association_id
#>    <chr>       <chr>         
#>  1 EFO_0005108 29052         
#>  2 EFO_0005108 29053         
#>  3 EFO_0005108 29054         
#>  4 EFO_0005108 29055         
#>  5 EFO_0005108 29165         
#>  6 EFO_0005108 29166         
#>  7 EFO_0005108 29167         
#>  8 EFO_0005108 29168         
#>  9 EFO_0005108 29169         
#> 10 EFO_0005109 29123         
#> # … with 28 more rows

# Map EFO trait identifiers to variant identifiers
trait_to_variant('EFO_0005229')

#> # A tibble: 30 x 2
#>    efo_id      variant_id
#>    <chr>       <chr>     
#>  1 EFO_0005229 rs4981419 
#>  2 EFO_0005229 rs16928927
#>  3 EFO_0005229 rs74702439
#>  4 EFO_0005229 rs35322295
#>  5 EFO_0005229 rs73481300
#>  6 EFO_0005229 rs1687482 
#>  7 EFO_0005229 rs6090818 
#>  8 EFO_0005229 rs73579354
#>  9 EFO_0005229 rs12881152
#> 10 EFO_0005229 rs182847  
#> # … with 20 more rows
…
