Set operations on GWAS Catalog objects. — setop • gwasrapidd
…
union(variants_ex01, variants_ex02)
#> An object of class "variants"
#> Slot "variants":
#> # A tibble: 5 × 7
#>   variant_id  merged functional_class          chromosome_name chromosome_posit…
#>   <chr>        <int> <chr>                     <chr>                       <int>
#> 1 rs146992477      0 regulatory_region_variant 8                        36984538
#> 2 rs56261590       0 intron_variant            4                        73189781
#> 3 rs4725504        0 intergenic_variant        7                       153608338
#> 4 rs11099757       0 intron_variant            4                       150143216
#> 5 rs16871509       0 intergenic_variant        5                        71726395
#> # … with 2 more variables: chromosome_region <chr>, last_update_date <dttm>
#> 
#> Slot "genomic_contexts":
#> # A tibble: 33 × 11
#>    variant_id  gene_name    chromosome_name chromosome_position distance
#>    <chr>       <chr>        <chr>                         <int>    <int>
#>  1 rs146992477 LOC105379377 8                          36984538    81555
#>  2 rs146992477 KCNU1        8                          36984538    48413
#>  3 rs146992477 LOC105379376 8                          36984538     2533
#>  4 rs146992477 TPT1P8       8                          36984538    95231
#>  5 rs146992477 RPL26P25     8                          36984538     3392
#>  6 rs146992477 KCNU1        8                          36984538    48413
#>  7 rs146992477 AC090453.1   8                          36984538     3439
#>  8 rs146992477 TPT1P8       8                          36984538    95008
#>  9 rs146992477 AC092818.1   8                          36984538    82903
#> 10 rs146992477 LOC105379375 8                          36984538    59331
#> # … with 23 more rows, and 6 more variables: is_closest_gene <lgl>,
#> #   is_intergenic <lgl>, is_upstream <lgl>, is_downstream <lgl>, source <chr>,
#> #   mapping_method <chr>
…
