Frequently asked questions • gwasrapidd
…
my_variants <- get_variants(cytogenetic_band = 'Yq11.221')
my_variants@variants[c('variant_id',
                       'chromosome_name',
                       'chromosome_position')]
#> # A tibble: 1 x 3
#>   variant_id chromosome_name chromosome_position
#>   <chr>      <chr>                         <int>
#> 1 rs2115848  Y                          14692972

How to know what are the cytogenetic bands for querying? We provide a dataset (dataframe) named cytogenetic_bands that you can use:

# ?cytogenetic_bands for more details.
cytogenetic_bands
#> # A tibble: 862 x 8
#>    cytogenetic_band chromosome  start    end length assembly stain
#>    <chr>            <chr>       <int>  <int>  <dbl> <chr>    <chr>
#>  1 1p36.33          1          1.00e0 2.30e6 2.30e6 GRCh38   gneg 
#>  2 1p36.32          1          2.30e6 5.30e6 3.00e6 GRCh38   gpos…
#>  3 1p36.31          1          5.30e6 7.10e6 1.80e6 GRCh38   gneg 
#>  4 1p36.23          1          7.10e6 9.10e6 2.00e6 GRCh38   gpos…
#>  5 1p36.22          1          9.10e6 1.25e7 3.40e6 GRCh38   gneg 
#>  6 1p36.21          1          1.25e7 1.59e7 3.40e6 GRCh38   gpos…
#>  7 1p36.13          1          1.59e7 2.01e7 4.20e6 GRCh38   gneg 
#>  8 1p36.12          1          2.01e7 2.36e7 3.50e6 GRCh38   gpos…
#>  9 1p36.11          1          2.36e7 2.76e7 4.00e6 GRCh38   gneg 
#> 10 1p35.3           1          2.76e7 2.99e7 2.30e6 GRCh38   gpos…
#> # … with 852 more rows, and 1 more variable: last_download_date <chr>
…
The four main retrieval functions get_studies(), get_associations(), get_variants() and get_traits() all allow you to search multiple criteria at once. You can then combine results in an OR or AND fashion using the parameter set_operation.

Use set_operation = 'union' to combine results in an OR fashion:

my_variants_OR <- get_variants(
  efo_trait = 'triple-negative breast cancer',
  gene_name = 'MDM4',
  set_operation = 'union')

my_variants_OR@variants[c('variant_id',
                       'chromosome_name',
                       'chromosome_position',
                       'chromosome_region')]
#> # A tibble: 24 x 4
#>    variant_id chromosome_name chromosome_position chromosome_region
#>    <chr>      <chr>                         <int> <chr>            
#>  1 rs3789045  1                         204617684 1q32.1           
#>  2 rs2290854  1                         204546897 1q32.1           
#>  3 rs3789044  1                         204619973 1q32.1           
#>  4 rs1980050  1                         204477560 1q32.1           
#>  5 rs7551222  1                         204630167 1q32.1           
#>  6 rs2137255  1                         204457245 1q32.1           
#>  7 rs4252707  1                         204539019 1q32.1           
#>  8 rs11584700 1                         204607855 1q32.1           
#>  9 rs4951404  1                         204572214 1q32.1           
#> 10 rs16853958 1                         204559216 1q32.1           
#> # … with 14 more rows
…
