Set operations on GWAS Catalog objects. — setop • gwasrapidd
…
union(variants_ex01, variants_ex02)
#> An object of class "variants"
#> Slot "variants":
#> # A tibble: 5 x 7
#>   variant_id merged functional_class chromosome_name chromosome_posi…
#>   <chr>       <int> <chr>            <chr>                      <int>
#> 1 rs1469924…      0 regulatory_regi… 8                       36984538
#> 2 rs56261590      0 intron_variant   4                       73189781
#> 3 rs4725504       0 intergenic_vari… 7                      153608338
#> 4 rs11099757      0 intron_variant   4                      150143216
#> 5 rs16871509      0 intergenic_vari… 5                       71726395
#> # … with 2 more variables: chromosome_region <chr>, last_update_date <dttm>
#> 
#> Slot "genomic_contexts":
#> # A tibble: 33 x 11
#>    variant_id gene_name chromosome_name chromosome_posi… distance
#>    <chr>      <chr>     <chr>                      <int>    <int>
#>  1 rs1469924… RPL26P25  8                       36984538     3392
#>  2 rs1469924… TPT1P8    8                       36984538    95008
#>  3 rs1469924… LOC10537… 8                       36984538    59331
#>  4 rs1469924… LOC10537… 8                       36984538    81555
#>  5 rs1469924… LOC10537… 8                       36984538     2533
#>  6 rs1469924… TPT1P8    8                       36984538    95231
#>  7 rs1469924… AC092818… 8                       36984538    82903
#>  8 rs1469924… KCNU1     8                       36984538    48413
#>  9 rs1469924… AC090453… 8                       36984538     3439
#> 10 rs1469924… KCNU1     8                       36984538    48410
#> # … with 23 more rows, and 6 more variables: is_closest_gene <lgl>,
#> #   is_intergenic <lgl>, is_upstream <lgl>, is_downstream <lgl>, source <chr>,
#> #   mapping_method <chr>
…
