Frequently asked questions • gwasrapidd
…
#>  9 27460830              1 rs76087671 T                     0.05
#> 10 27460844              1 rs1119404… T                     0.04
#> 11 27460858              1 rs7337127  T                     0.15
#> 12 27460864              1 rs1457636… A                     0.1 
#> 13 27460870              1 rs73057489 C                     0.07
#> 14 27460851              1 rs17810023 T                     0.02
#> 15 23033                 1 rs8064100  A                    NA   
#> 16 23034                 1 rs12237653 T                    NA   
#> 17 23035                 1 rs11060736 T                    NA   
#> 18 23036                 1 rs9383153  A                    NA   
#> 19 23176                 1 rs10812227 C                    NA   
#> # … with 2 more variables: genome_wide <lgl>, limited_list <lgl>
#> 
#> Slot "genes":
#> # A tibble: 31 x 3
#>    association_id locus_id gene_name   
#>    <chr>             <int> <chr>       
#>  1 15608                 1 <NA>        
#>  2 44592                 1 PRR5        
#>  3 44589                 1 APOB        
#>  4 44590                 1 PER4        
#>  5 27460823              1 LOC101929321
#>  6 27460811              1 CUBN        
#>  7 27460817              1 Intergenic  
#>  8 27460805              1 PRR5        
#>  9 27460805              1 ARHGAP8     
#> 10 27460830              1 intergenic  
#> # … with 21 more rows
#> 
#> Slot "ensembl_ids":
#> # A tibble: 31 x 4
#>    association_id locus_id gene_name    ensembl_id     
#>    <chr>             <int> <chr>        <chr>          
#>  1 15608                 1 <NA>         <NA>           
#>  2 44592                 1 PRR5         ENSG00000186654
#>  3 44589                 1 APOB         ENSG00000084674
#>  4 44590                 1 PER4         <NA>           
#>  5 27460823              1 LOC101929321 <NA>           
#>  6 27460811              1 CUBN         ENSG00000107611
#>  7 27460817              1 Intergenic   <NA>           
#>  8 27460805              1 PRR5         ENSG00000186654
#>  9 27460805              1 ARHGAP8      ENSG00000241484
#> 10 27460830              1 intergenic   <NA>           
#> # … with 21 more rows
#> 
#> Slot "entrez_ids":
#> # A tibble: 31 x 4
#>    association_id locus_id gene_name    entrez_id
#>    <chr>             <int> <chr>        <chr>    
#>  1 15608                 1 <NA>         <NA>     
#>  2 44592                 1 PRR5         55615    
#>  3 44589                 1 APOB         338      
#>  4 44590                 1 PER4         168741   
#>  5 27460823              1 LOC101929321 101929321
#>  6 27460811              1 CUBN         8029     
#>  7 27460817              1 Intergenic   <NA>     
#>  8 27460805              1 PRR5         55615    
#>  9 27460805              1 ARHGAP8      23779    
#> 10 27460830              1 intergenic   <NA>     
#> # … with 21 more rows
…
#> Warning: `cols` is now required.
#> Please use `cols = c(entrezGeneIds)`
my_variants@variants[c('variant_id',
                       'chromosome_name',
                       'chromosome_position')]
#> # A tibble: 1 x 3
#>   variant_id chromosome_name chromosome_position
#>   <chr>      <chr>                         <int>
#> 1 rs2115848  Y                          14692972

How to know what are the cytogenetic bands for querying? We provide a dataset (dataframe) named cytogenetic_bands that you can use:

# ?cytogenetic_bands for more details.
cytogenetic_bands
#> # A tibble: 862 x 8
#>    cytogenetic_band chromosome  start    end length assembly stain
#>    <chr>            <chr>       <int>  <int>  <dbl> <chr>    <chr>
#>  1 1p36.33          1          1.00e0 2.30e6 2.30e6 GRCh38   gneg 
#>  2 1p36.32          1          2.30e6 5.30e6 3.00e6 GRCh38   gpos…
#>  3 1p36.31          1          5.30e6 7.10e6 1.80e6 GRCh38   gneg 
#>  4 1p36.23          1          7.10e6 9.10e6 2.00e6 GRCh38   gpos…
#>  5 1p36.22          1          9.10e6 1.25e7 3.40e6 GRCh38   gneg 
#>  6 1p36.21          1          1.25e7 1.59e7 3.40e6 GRCh38   gpos…
#>  7 1p36.13          1          1.59e7 2.01e7 4.20e6 GRCh38   gneg 
#>  8 1p36.12          1          2.01e7 2.36e7 3.50e6 GRCh38   gpos…
#>  9 1p36.11          1          2.36e7 2.76e7 4.00e6 GRCh38   gneg 
#> 10 1p35.3           1          2.76e7 2.99e7 2.30e6 GRCh38   gpos…
#> # … with 852 more rows, and 1 more variable: last_download_date <chr>
…
#> Warning: `cols` is now required.
#> Please use `cols = c(entrezGeneIds)`

#> Warning: `cols` is now required.
#> Please use `cols = c(entrezGeneIds)`

#> Warning: `cols` is now required.
#> Please use `cols = c(entrezGeneIds)`

my_variants_OR@variants[c('variant_id',
                       'chromosome_name',
                       'chromosome_position',
                       'chromosome_region')]
#> # A tibble: 24 x 4
#>    variant_id chromosome_name chromosome_position chromosome_region
#>    <chr>      <chr>                         <int> <chr>            
#>  1 rs12756329 1                         204561374 1q32.1           
#>  2 rs1980050  1                         204477560 1q32.1           
#>  3 rs3789045  1                         204617684 1q32.1           
#>  4 rs2290854  1                         204546897 1q32.1           
#>  5 rs12143943 1                         204602943 1q32.1           
#>  6 rs2137255  1                         204457245 1q32.1           
#>  7 rs12092943 1                         204465799 1q32.1           
#>  8 rs7551222  1                         204630167 1q32.1           
#>  9 rs4252707  1                         204539019 1q32.1           
#> 10 rs11584700 1                         204607855 1q32.1           
#> # … with 14 more rows
…
