Getting started with gwasrapidd • gwasrapidd
…
Here we subset the my_associations object by a vector of association identifiers (association_ids) into a smaller object, my_associations2:

# Extract associations by association id
my_associations2 <- my_associations[association_ids]
gwasrapidd::n(my_associations2)
#> [1] 180

Of the 182 associations found in GWAS Catalog, 180 meet the p-value threshold of \(1\times 10^{-6}\). Here are the variants, and their respective risk allele and risk frequency:

my_associations2@risk_alleles[c('variant_id', 'risk_allele', 'risk_frequency')]
#> # A tibble: 180 × 3
#>    variant_id risk_allele risk_frequency
#>    <chr>      <chr>                <dbl>
#>  1 rs11580078 G                     0.43
#>  2 rs6679677  A                     0.09
#>  3 rs34884278 C                     0.3 
#>  4 rs6689858  C                     0.29
#>  5 rs2075184  T                     0.23
#>  6 rs36001488 C                     0.48
#>  7 rs4676410  A                     0.19
#>  8 rs4625     G                     0.31
#>  9 rs62324212 A                     0.42
#> 10 rs7725052  C                     0.43
#> # … with 170 more rows
…
